{
  "path": "resource/mutations/platiolus_mutation.json",
  "enabled": true,
  "chance": 0.25,
  "child": "resource:platiolus_plant",
  "parent1": "resource:ferranium_plant",
  "parent2": "resource:aurigold_plant"
}
