{
  "path": "resource/mutations/quartzanthemum_mutation.json",
  "enabled": true,
  "chance": 0.5,
  "child": "resource:quartzanthemum_plant",
  "parent1": "resource:redstodendron_plant",
  "parent2": "resource:nitorwart_plant"
}
