{
  "path": "vanilla/soils/soul_sand_soil.json",
  "enabled": true,
  "id": "soul_sand_soil",
  "name": "Soul Sand",
  "varients": [
    {
      "item": "minecraft:soul_sand",
      "meta": 0,
      "tags": "",
      "ignoreMeta": true,
      "ignoreTags": [
        "*"
      ],
      "useOreDict": true
    }
  ]
}
