{
	"name": "basic2",
	"description": "",
	"author": "gottsch",
	"archetypes": ["subterranean"],
	"type": "room",
	"themes": ["dungeon"],
	"rarities": ["common"],
	"biomeWhiteList": [],
	"biomeBlackList": ["ocean", "deep_ocean"]
}