{
    "images":
    {
        "title":
        {
            "image" : "assets:image2.png",
            "posX" : -137,
            "posY" : 20,
            "width" : 275,
            "height" : 75,
            "alignment" : "top_center"
        },
        
        "edition":
        {
            "image" : "assets:bh1.png",
            "posX" : 2,
            "posY" : 2398,
            "width" : 50,
            "height" : 50,
            "alignment" : "top_left"
        }
    },
    
    "buttons":
    {
        "singleplayer":
        {
            "text" : "menu.singleplayer",
            "posX" : -100,
            "posY" : 38,
            "width" : 200,
            "height" : 20,
            "action" : 
            {
                "type" : "openGui",
                "gui" : "singleplayer"
            }
        },
        
        "multiplayer":
        {
            "text" : "menu.multiplayer",
            "posX" : -100,
            "posY" : 62,
            "width" : 200,
            "height" : 20,
            "action" : 
            {
                "type" : "openGui",
                "gui" : "multiplayer"
            }
        },
        
        "mods":
        {
            "text" : "fml.menu.mods",
            "posX" : -100,
            "posY" : 86,
            "width" : 200,
            "height" : 20,
            "action" : 
            {
                "type" : "openGui",
                "gui" : "mods"
            }
        },
            
        "options":
        {
            "text" : "menu.options",
            "posX" : -100,
            "posY" : 132,
            "width" : 98,
            "height" : 20,
            "action" : 
            {
                "type" : "openGui",
                "gui" : "options"
            }
        },
        
		"Bisect":
        {
            "text" : "Want a server? Use code Eternal",
			"normalTextColor" : 3125670,
			"hoverTextColor" : 7654321,
            "posX" : -90,
            "posY" : 109,
            "width" : 177,
            "height" : 20,
			"alignment":"button",
            "action" : 
            {
                "type" : "openLink",
                "link" : "https://bisecthosting.com/eternal"
            }
		},	
		
		"Discord":
        {
			"text" : "",
			"texture": "assets:mce.png",
			"hoverText": "Click to join our Discord!",
			"hoverTextColor": 3547073,
            "posX" : -124,
            "posY" : 87,
            "width" : 20,
            "height" : 20,
			"imageWidth": 300,
			"imageHeight": 300,
			"alignment":"button",
            "action" : 
            {
                "type" : "openLink",
                "link" : "https://discord.gg/ZS6FRR3"
            }
		},	
		
		"Github":
		{
			"text" : "",
			"texture": "assets:github.png",
			"hoverText": "Github",
			"hoverTextColor": 3547073,
            "posX" : -124,
            "posY" : 109,
            "width" : 20,
            "height" : 20,
			"imageWidth": 512,
			"imageHeight": 512,
			"alignment":"button",
            "action" : 
            {
                "type" : "openLink",
                "link" : "https://github.com/Minecraft-Eternal/MC-Eternal-Lite-1.12"
            }
		},	
		
        "quit":
        {
            "text" : "menu.quit",
            "posX" : 2,
            "posY" : 132,
            "width" : 98,
            "height" : 20,
            "action" : 
            {
                "type" : "quit"
            }
        },
        
        "language":
        {
            "text" : "",
            "posX" : -124,
            "posY" : 132,
            "width" : 20,
            "height" : 20,
            "action" : 
            {
                "type" : "openGui",
                "gui" : "languages"
            }
        },
        
        "refresh":
        {
            "text" : "",
            "posX" : -154,
            "posY" : 132,
            "width" : 20,
            "height" : 20,
            "texture" : "custommainmenu:textures/gui/buttons.png",
            "action" : 
            {
                "type" : "refresh"
            }
        }
    },
    
    "labels":
    {
        "mojang":
        {
            "text" : "Copyright Mojang AB. Do not distribute!",
            "hoverText" : "§nCopyright Mojang AB. Do not distribute!",
            "posX" : -197,
            "posY" : -10,
            "color" : -1,
            "alignment" : "bottom_right",
            "action" : 
            {
                "type" : "openGui",
                "gui" : "credits"
            }
        },
        
        "fml":
        {
            "text" : "",
            "posX" : 2,
            "posY" : -40,
            "color" : -1,
            "alignment" : "bottom_left"
        }
    },
    
    "other":
    {
        "splash-text":
        {
            "posX" : 80,
            "posY" : 110,
            "color" : -256,
            "alignment" : "top_left",
            "texts" : "file:assets:splashes.txt"
        },
        
        "panorama":
        {
            "images" : "assets:panorama_%c.png",
            "animate" : true,
            "animationSpeed" : 1,
            "blur" : true,
            "gradient" : true
        }
    }
}