{
	"pools": [
		{
			"name": "treasure",
			"rolls": {
				"min": 2,
				"max": 3
			},
			"entries": [
                {
                    "type": "loot_table",
                    "name": "treasure2:loot_tables/treasure2/treasure/scarce",
                    "weight": 30
                }
			]
		},	
		{
			"name": "items",
			"rolls": {
				"min": 2,
				"max": 3
			},
			"entries": [
	            {
	                "type": "loot_table",
	                "name": "treasure2:loot_tables/treasure2/items/scarce",
	                "weight": 1
	            }
			]
		},

		{
			"name": "food",
			"rolls": {
				"min": 1,
				"max": 3
			},
			"entries": [
                {
                    "type": "loot_table",
                    "name": "treasure2:loot_tables/treasure2/food/scarce",
                    "weight": 1
                }			
			]
		},

		{
			"name": "potions",
			"rolls": {
				"min": 1,
				"max": 3
			},
			"entries": [
                {
                    "type": "loot_table",
                    "name": "treasure2:loot_tables/treasure2/potions/scarce",
                    "weight": 1
                }			
			]
		},
		{
			"name": "uncommon_items",
			"rolls": {
				"min": 0,
				"max": 3
			},
			"entries": [
	            {
	                "type": "loot_table",
	                "name": "treasure2:loot_tables/treasure2/items/uncommon",
	                "weight": 1
	            }
			]
		},

		{
			"name": "uncommon_food",
			"rolls": {
				"min": 0,
				"max": 2
			},
			"entries": [
                {
                    "type": "loot_table",
                    "name": "treasure2:loot_tables/treasure2/food/uncommon",
                    "weight": 1
                }			
			]
		},

		{
			"name": "uncommon_potions",
			"rolls": {
				"min": 0,
				"max": 2
			},
			"entries": [
                {
                    "type": "loot_table",
                    "name": "treasure2:loot_tables/treasure2/potions/uncommon",
                    "weight": 1
                }			
			]
		}		
	]
}