{
  "path": "resource/plants/diamahlia_plant.json",
  "enabled": true,
  "id": "resource:diamahlia_plant",
  "plant_name": "Diamahlia",
  "seed_name": "Diamahlia Seeds",
  "seed_items": [],
  "description": {
    "translations": {},
    "default": "A rarity by any measure."
  },
  "growth_chance": 0.75,
  "growth_bonus": 0.025,
  "bonemeal": false,
  "tier": 1,
  "weedable": false,
  "aggressive": false,
  "spread_chance": 0.1,
  "spawn_chance": 0.0,
  "grass_drop_chance": 0.0,
  "seed_drop_chance": 1.0,
  "seed_drop_bonus": 0.0,
  "products": {
    "products": [
      {
        "min": 1,
        "max": 1,
        "chance": 0.75,
        "required": true,
        "item": "oredict:nuggetDiamond",
        "meta": 0,
        "tags": "",
        "ignoreMeta": false,
        "ignoreTags": [],
        "useOreDict": false
      }
    ]
  },
  "requirement": {
    "min_light": 10,
    "max_light": 16,
    "soils": [
      "farmland_soil",
      "grass_soil",
      "fertilized_dirt_soil",
      "loamy_farmland_soil",
      "sandy_farmland_soil",
      "silty_farmland_soil",
      "fertilized_farmland_stable_soil",
      "fertilized_farmland_rich_stable_soil",
      "fertilized_farmland_rich_soil",
      "fertilized_farmland_healthy_stable_soil",
      "fertilized_farmland_healthy_soil"
    ],
    "conditions": [
      {
        "amount": 1,
        "min_x": 0,
        "min_y": -2,
        "min_z": 0,
        "max_x": 0,
        "max_y": -2,
        "max_z": 0,
        "item": "oredict:oreDiamond",
        "meta": 0,
        "tags": "",
        "ignoreMeta": true,
        "ignoreTags": [],
        "useOreDict": true
      }
    ]
  },
  "texture": {
    "render_type": "hash",
    "seed_texture": "agricraft:items/seed_diamahlia",
    "plant_textures": [
      "agricraft:blocks/crop_diamahlia1",
      "agricraft:blocks/crop_diamahlia1",
      "agricraft:blocks/crop_diamahlia1",
      "agricraft:blocks/crop_diamahlia2",
      "agricraft:blocks/crop_diamahlia2",
      "agricraft:blocks/crop_diamahlia3",
      "agricraft:blocks/crop_diamahlia3",
      "agricraft:blocks/crop_diamahlia4"
    ]
  }
}
