[
	{
		"block": "mysticalagriculture:prosperity_ore:0",
		"distrib": "0,0.0;12,0.0;13,3.125E-4;14,0.0016796875;15,0.002734375;16,0.0037890626;17,0.0040234374;18,0.0035546876;19,0.0042578126;20,0.002578125;21,0.001796875;22,0.002578125;23,0.0033984375;24,0.00375;25,0.003828125;26,0.002890625;27,0.00375;28,0.0028515626;29,0.004296875;30,0.004375;31,0.0037890626;32,0.00296875;33,0.004765625;34,0.004140625;35,0.0033203126;36,0.003984375;37,0.0028515626;38,0.0021875;39,0.00265625;40,0.0044140625;41,0.0039453125;42,0.003046875;43,0.0033203126;44,0.003671875;45,0.00265625;46,0.0040234374;47,0.0020703124;48,3.515625E-4;49,0.0;",
		"silktouch": true,
		"dropsList": [
			{
				"itemStack": "mysticalagriculture:crafting:5",
				"fortunes": {
					"0": 2.5092,
					"1": 2.4994,
					"2": 3.1252,
					"3": 3.9655
				}
			}
		],
		"dim": "Dim 0: overworld"
	},
	{
		"block": "iceandfire:sapphire_ore:0",
		"distrib": "0,0.0;3,0.0;4,1.5625E-4;5,1.953125E-4;6,7.8125E-5;7,7.8125E-5;8,1.5625E-4;9,2.34375E-4;10,1.5625E-4;11,1.953125E-4;12,2.734375E-4;13,1.953125E-4;14,1.953125E-4;15,2.734375E-4;16,3.90625E-5;17,2.734375E-4;18,2.34375E-4;19,1.953125E-4;20,3.90625E-5;21,1.953125E-4;22,7.8125E-5;23,1.171875E-4;24,1.953125E-4;25,1.171875E-4;26,2.734375E-4;27,2.34375E-4;28,1.953125E-4;29,1.171875E-4;30,2.34375E-4;31,1.5625E-4;32,0.0;",
		"silktouch": true,
		"dropsList": [
			{
				"itemStack": "iceandfire:sapphire_gem:0",
				"fortunes": {
					"0": 1.0,
					"1": 1.3392,
					"2": 1.7472,
					"3": 2.1937
				}
			}
		],
		"dim": "Dim 0: overworld"
	},
	{
		"block": "minecraft:stone_brick_stairs:0",
		"distrib": "0,0.0;20,0.0;21,8.59375E-4;22,0.0;65,0.0;66,0.0015625;67,0.0015625;68,0.0;69,0.0;70,2.734375E-4;71,3.90625E-5;72,3.515625E-4;73,6.25E-4;74,9.375E-4;75,0.0;",
		"silktouch": false,
		"dropsList": [
			{
				"itemStack": "minecraft:stone_brick_stairs:0",
				"fortunes": {
					"0": 1.0,
					"1": 1.0,
					"2": 1.0,
					"3": 1.0
				}
			}
		],
		"dim": "Dim 0: overworld"
	},
	{
		"block": "thermalfoundation:fluid_redstone:0",
		"distrib": "0,0.0;1,0.0;2,7.8125E-5;3,0.0;9,0.0;10,3.90625E-5;11,0.0;13,0.0;14,3.90625E-5;15,7.8125E-5;16,7.8125E-5;17,0.0;18,3.90625E-5;19,3.90625E-5;20,0.0;",
		"silktouch": false,
		"dim": "Dim 0: overworld"
	},
	{
		"block": "appliedenergistics2:quartz_ore:0",
		"distrib": "0,0.0;17,0.0;18,3.90625E-4;19,1.5625E-4;20,0.0;21,0.0;22,7.8125E-5;23,1.5625E-4;24,1.5625E-4;25,0.0;26,3.125E-4;27,0.0;28,0.0;29,7.8125E-5;30,4.296875E-4;31,0.0;32,3.515625E-4;33,1.5625E-4;34,2.34375E-4;35,3.125E-4;36,7.8125E-5;37,0.0;38,1.5625E-4;39,3.125E-4;40,0.0;41,2.34375E-4;42,1.5625E-4;43,1.5625E-4;44,4.6875E-4;45,0.0;46,1.5625E-4;47,1.5625E-4;48,0.0;52,0.0;53,1.5625E-4;54,3.125E-4;55,0.0;56,0.0;57,1.5625E-4;58,0.0;",
		"silktouch": true,
		"dropsList": [
			{
				"itemStack": "appliedenergistics2:material:0",
				"fortunes": {
					"0": 1.4997,
					"1": 1.9901,
					"2": 2.6132,
					"3": 3.3024
				}
			}
		],
		"dim": "Dim 0: overworld"
	},
	{
		"block": "minecraft:stone_slab:3",
		"distrib": "0,0.0;65,0.0;66,0.00109375;67,3.125E-4;68,4.6875E-4;69,0.0;",
		"silktouch": false,
		"dropsList": [
			{
				"itemStack": "minecraft:stone_slab:3",
				"fortunes": {
					"0": 1.0,
					"1": 1.0,
					"2": 1.0,
					"3": 1.0
				}
			}
		],
		"dim": "Dim 0: overworld"
	},
	{
		"block": "quark:limestone_speleothem:0",
		"distrib": "0,0.0;15,0.0;16,3.90625E-5;17,1.171875E-4;18,1.5625E-4;19,3.90625E-5;20,3.90625E-5;21,7.8125E-5;26,7.8125E-5;27,3.90625E-5;29,3.90625E-5;30,0.0;",
		"silktouch": true,
		"dim": "Dim 0: overworld"
	},
	{
		"block": "minecraft:stone_slab:5",
		"distrib": "0,0.0;65,0.0;66,3.90625E-5;67,0.0;72,0.0;73,3.125E-4;74,0.0;75,0.0;76,0.00203125;77,0.00109375;78,0.0;",
		"silktouch": false,
		"dropsList": [
			{
				"itemStack": "minecraft:stone_slab:5",
				"fortunes": {
					"0": 2.0,
					"1": 2.0,
					"2": 2.0,
					"3": 2.0
				}
			}
		],
		"dim": "Dim 0: overworld"
	},
	{
		"block": "ghostsexplosives:ore_potassium:0",
		"distrib": "0,0.0;10,0.0;11,0.0015625;12,0.0065625;13,0.014140625;14,0.015195313;15,0.01484375;16,0.01515625;17,0.016445313;18,0.01640625;19,0.011953125;20,0.012539063;21,0.013632813;22,0.01140625;23,0.011953125;24,0.0140625;25,0.014335938;26,0.01265625;27,0.0115625;28,0.012578125;29,0.013085937;30,0.013671875;31,0.011875;32,0.011796875;33,0.014257813;34,0.013320313;35,0.014335938;36,0.014179688;37,0.0126953125;38,0.013398438;39,0.014335938;40,0.013789062;41,0.0134375;42,0.015507813;43,0.016484374;44,0.013671875;45,0.011015625;46,0.009648438;47,0.01015625;48,0.0053125;49,0.0039453125;50,0.0057421876;51,0.006015625;52,0.0054296874;53,0.005;54,0.0060546873;55,0.007109375;56,0.0054296874;57,0.0047265626;58,0.0045703123;59,0.0023828126;60,9.375E-4;61,2.34375E-4;62,0.0;",
		"silktouch": true,
		"dropsList": [
			{
				"itemStack": "ghostsexplosives:dust_potassium_nitrate:0",
				"fortunes": {
					"0": 2.5042,
					"1": 2.9997,
					"2": 3.4999,
					"3": 3.9954
				}
			}
		],
		"dim": "Dim 0: overworld"
	},
	{
		"block": "minecraft:lapis_ore:0",
		"distrib": "0,0.0;1,0.0;2,1.5625E-4;3,1.5625E-4;4,1.171875E-4;5,3.90625E-4;6,3.90625E-4;7,5.46875E-4;8,3.90625E-4;9,3.515625E-4;10,2.734375E-4;11,5.859375E-4;12,0.0015234374;13,9.375E-4;14,4.6875E-4;15,4.6875E-4;16,7.8125E-5;17,1.5625E-4;18,5.46875E-4;19,3.515625E-4;20,3.90625E-4;21,3.90625E-4;22,7.03125E-4;23,3.90625E-4;24,3.90625E-5;25,1.5625E-4;26,3.90625E-4;27,3.125E-4;28,3.125E-4;29,0.0;",
		"silktouch": true,
		"dropsList": [
			{
				"itemStack": "minecraft:dye:4",
				"fortunes": {
					"0": 6.0136,
					"1": 8.0079,
					"2": 10.5313,
					"3": 13.1989
				}
			}
		],
		"dim": "Dim 0: overworld"
	},
	{
		"block": "minecraft:snow_layer:0",
		"distrib": "0,0.0;59,0.0;60,5.078125E-4;61,0.00109375;62,0.0010546875;63,0.020703126;64,0.012148437;65,0.010078125;66,0.0057421876;67,1.171875E-4;68,0.0;69,2.34375E-4;70,4.6875E-4;71,2.734375E-4;72,1.5625E-4;73,1.171875E-4;74,1.171875E-4;75,3.90625E-5;76,1.953125E-4;77,3.90625E-5;78,2.734375E-4;79,1.171875E-4;80,0.0;",
		"silktouch": false,
		"dropsList": [
			{
				"itemStack": "minecraft:snowball:0",
				"fortunes": {
					"0": 2.0,
					"1": 2.0,
					"2": 2.0,
					"3": 2.0
				}
			}
		],
		"dim": "Dim 0: overworld"
	},
	{
		"block": "quark:roots_white_flower:0",
		"distrib": "0,0.0;15,0.0;16,7.8125E-5;17,3.90625E-5;21,3.90625E-5;22,7.8125E-5;23,7.8125E-5;24,0.0;25,3.90625E-5;26,0.0;27,0.0;28,3.90625E-5;29,3.90625E-5;30,1.171875E-4;31,0.0;34,0.0;35,1.171875E-4;36,0.0;37,0.0;38,3.90625E-5;39,0.0;40,0.0;41,3.90625E-5;44,3.90625E-5;45,1.171875E-4;46,3.90625E-5;47,7.8125E-5;48,0.0;",
		"silktouch": false,
		"dropsList": [
			{
				"itemStack": "quark:root_flower:2",
				"fortunes": {
					"0": 1.0,
					"1": 1.0,
					"2": 1.0,
					"3": 1.0
				}
			}
		],
		"dim": "Dim 0: overworld"
	},
	{
		"block": "dungeontactics:flower_tangle:0",
		"distrib": "0,0.0;12,0.0;13,1.5625E-4;14,0.0;20,0.0;21,3.90625E-5;22,0.0;28,0.0;29,1.5625E-4;30,0.0;",
		"silktouch": false,
		"dropsList": [
			{
				"itemStack": "dungeontactics:flower_tangle:0",
				"fortunes": {
					"0": 1.0,
					"1": 1.0,
					"2": 1.0,
					"3": 1.0
				}
			}
		],
		"dim": "Dim 0: overworld"
	},
	{
		"block": "minecraft:gravel:0",
		"distrib": "0,0.0;1,0.004140625;2,0.008242187;3,0.013359375;4,0.016132813;5,0.01578125;6,0.015546875;7,0.017734375;8,0.023046875;9,0.020820312;10,0.017421875;11,0.012890625;12,0.013085937;13,0.01734375;14,0.021328125;15,0.021601563;16,0.02109375;17,0.019960938;18,0.016953126;19,0.015664063;20,0.014570313;21,0.016601562;22,0.019375;23,0.018046875;24,0.014257813;25,0.011992187;26,0.011054687;27,0.013398438;28,0.013789062;29,0.0140625;30,0.015234375;31,0.029140625;32,0.017539062;33,0.016445313;34,0.02171875;35,0.028710937;36,0.038476564;37,0.038671874;38,0.033554688;39,0.0284375;40,0.021875;41,0.023164062;42,0.024179688;43,0.023203125;44,0.050234374;45,0.04496094;46,0.04265625;47,0.13488281;48,0.008710938;49,0.009023437;50,0.008320313;51,0.0048046876;52,0.0057421876;53,0.005703125;54,0.00609375;55,0.0061328127;56,0.008046875;57,0.009375;58,0.005078125;59,0.0028125;60,0.0026171876;61,0.0013671875;62,9.375E-4;63,6.25E-4;64,0.0;",
		"silktouch": false,
		"dropsList": [
			{
				"itemStack": "minecraft:flint:0",
				"fortunes": {
					"0": 0.098,
					"1": 0.1364,
					"2": 0.2521,
					"3": 1.0
				}
			}
		],
		"dim": "Dim 0: overworld"
	},
	{
		"block": "tconstruct:slime_vine_blue_end:0",
		"distrib": "0,0.0;155,0.0;156,3.90625E-5;157,7.8125E-5;158,3.90625E-5;159,7.8125E-5;160,0.0;",
		"silktouch": false,
		"dim": "Dim 0: overworld"
	},
	{
		"block": "taiga:meteorite_block:0",
		"distrib": "0,0.0;41,0.0;42,3.90625E-5;43,8.203125E-4;44,0.0014453125;45,0.0017578125;46,0.001875;47,0.0017578125;48,0.0;",
		"silktouch": false,
		"dim": "Dim 0: overworld"
	},
	{
		"block": "minecraft:ice:0",
		"distrib": "0,0.0;61,0.0;62,0.04082031;63,0.0;",
		"silktouch": true,
		"dim": "Dim 0: overworld"
	},
	{
		"block": "dungeontactics:bush_incindiberry:0",
		"distrib": "0,0.0;14,0.0;15,3.90625E-5;16,0.0;25,0.0;26,7.8125E-5;27,0.0;31,0.0;32,3.90625E-5;33,0.0;35,0.0;36,3.90625E-5;37,3.90625E-5;38,0.0;",
		"silktouch": false,
		"dropsList": [
			{
				"itemStack": "dungeontactics:bush_incindiberry:0",
				"fortunes": {
					"0": 2.0,
					"1": 2.0,
					"2": 2.0,
					"3": 2.0
				}
			}
		],
		"dim": "Dim 0: overworld"
	},
	{
		"block": "appliedenergistics2:charged_quartz_ore:0",
		"distrib": "0,0.0;34,0.0;35,1.5625E-4;36,0.0;41,0.0;42,1.171875E-4;43,0.0;44,1.5625E-4;45,0.0;50,0.0;51,7.8125E-5;52,0.0;",
		"silktouch": true,
		"dropsList": [
			{
				"itemStack": "appliedenergistics2:material:1",
				"fortunes": {
					"0": 1.5001,
					"1": 2.009,
					"2": 2.6171,
					"3": 3.2896
				}
			}
		],
		"dim": "Dim 0: overworld"
	},
	{
		"block": "mekanism:oreblock:2",
		"distrib": "0,0.0;1,9.375E-4;2,6.640625E-4;3,0.0022265625;4,0.00421875;5,0.004921875;6,0.00359375;7,0.004453125;8,0.0044921874;9,0.0050390624;10,0.0048828125;11,0.00375;12,0.0041015623;13,0.0041796877;14,0.00421875;15,0.0039453125;16,0.0030859376;17,0.00265625;18,0.00328125;19,0.0025390624;20,0.0027734374;21,0.0037890626;22,0.003125;23,0.0033203126;24,0.0026953125;25,0.003203125;26,0.0037890626;27,0.0037109375;28,0.002890625;29,0.0027734374;30,0.0044140625;31,0.00390625;32,0.0036328125;33,0.0034765624;34,0.0023828126;35,0.00296875;36,0.003671875;37,0.0028125;38,0.003203125;39,0.0042578126;40,0.0042578126;41,0.0043359376;42,0.003828125;43,0.0033203126;44,0.0026171876;45,0.00203125;46,0.0019921875;47,0.0026171876;48,0.001640625;49,0.001015625;50,0.00109375;51,0.0015234374;52,0.00109375;53,0.0016015625;54,0.0016015625;55,5.859375E-4;56,7.8125E-4;57,0.0015625;58,5.859375E-4;59,0.0;",
		"silktouch": false,
		"dim": "Dim 0: overworld"
	},
	{
		"block": "mekanism:oreblock:1",
		"distrib": "0,0.0;1,7.8125E-4;2,0.0018359375;3,0.0024609375;4,0.0030078124;5,0.0055078124;6,0.00421875;7,0.0055078124;8,0.00390625;9,0.0021484375;10,0.0025390624;11,0.0042578126;12,0.0025;13,0.0031640625;14,0.00375;15,0.002421875;16,0.0033203126;17,0.0035546876;18,0.0028125;19,0.0031640625;20,0.003125;21,0.002890625;22,0.0028515626;23,0.0041015623;24,0.0046484377;25,0.0032421874;26,0.0021875;27,0.0026171876;28,0.0023046874;29,0.0033984375;30,0.0025390624;31,0.0035546876;32,0.0038671875;33,0.00328125;34,0.0028515626;35,0.0033984375;36,0.0024609375;37,0.002265625;38,0.0025390624;39,0.002734375;40,0.002265625;41,0.0030859376;42,0.002734375;43,0.00296875;44,0.0031640625;45,0.002265625;46,0.0015234374;47,0.0017578125;48,8.984375E-4;49,0.0012109375;50,0.0024609375;51,0.001328125;52,0.001171875;53,0.0019140625;54,0.0019921875;55,0.0012109375;56,0.00125;57,7.8125E-4;58,3.125E-4;59,0.0;",
		"silktouch": false,
		"dim": "Dim 0: overworld"
	},
	{
		"block": "tconstruct:slime_vine_blue_mid:0",
		"distrib": "0,0.0;156,0.0;157,3.90625E-5;158,1.171875E-4;159,1.171875E-4;160,0.0;",
		"silktouch": false,
		"dim": "Dim 0: overworld"
	},
	{
		"block": "minecraft:clay:0",
		"distrib": "0,0.0;15,0.0;16,7.8125E-5;17,0.001015625;18,0.0032421874;19,0.005234375;20,0.0075390623;21,0.0078125;22,0.007421875;23,0.00671875;24,0.007421875;25,0.008828125;26,0.008671875;27,0.0071484377;28,0.0053515625;29,0.0056640627;30,0.006171875;31,0.0040625;32,0.003828125;33,0.004296875;34,0.007929687;35,0.008125;36,0.006484375;37,0.00515625;38,0.0062890626;39,0.00875;40,0.008945312;41,0.006171875;42,0.00265625;43,0.004453125;44,0.00546875;45,0.0061328127;46,0.0061328127;47,0.0045703123;48,0.0021484375;49,0.0012890626;50,0.001875;51,0.0028125;52,0.0025390624;53,0.0016796875;54,0.0025;55,0.005390625;56,0.003984375;57,0.0025;58,0.00328125;59,0.001015625;60,0.00140625;61,0.0076953126;62,0.0;",
		"silktouch": true,
		"dropsList": [
			{
				"itemStack": "minecraft:clay_ball:0",
				"fortunes": {
					"0": 4.0,
					"1": 4.0,
					"2": 4.0,
					"3": 4.0
				}
			}
		],
		"dim": "Dim 0: overworld"
	},
	{
		"block": "actuallyadditions:item_rice_seed:0",
		"distrib": "0,0.0;62,0.0;63,5.46875E-4;64,0.0;",
		"silktouch": false,
		"dropsList": [
			{
				"itemStack": "actuallyadditions:item_food:16",
				"fortunes": {
					"0": 1.496,
					"1": 1.4921,
					"2": 1.5081,
					"3": 1.5019
				}
			},
			{
				"itemStack": "actuallyadditions:item_rice_seed:0",
				"fortunes": {
					"0": 1.7097,
					"1": 2.2879,
					"2": 2.8728,
					"3": 3.4319
				}
			}
		],
		"dim": "Dim 0: overworld"
	},
	{
		"block": "actuallyadditions:block_crystal_cluster_emerald:0",
		"distrib": "0,0.0;33,0.0;34,3.90625E-5;35,0.0;",
		"silktouch": true,
		"dropsList": [
			{
				"itemStack": "actuallyadditions:item_crystal_shard:4",
				"fortunes": {
					"0": 4.011,
					"1": 4.0138,
					"2": 4.0083,
					"3": 4.0027
				}
			}
		],
		"dim": "Dim 0: overworld"
	},
	{
		"block": "minecraft:yellow_flower:0",
		"distrib": "0,0.0;18,0.0;19,7.8125E-5;20,3.90625E-5;21,3.90625E-5;22,0.0;26,0.0;27,1.171875E-4;28,3.90625E-5;29,0.0;62,0.0;63,3.90625E-5;64,0.0;65,7.8125E-5;66,0.0;",
		"silktouch": false,
		"dropsList": [
			{
				"itemStack": "minecraft:yellow_flower:0",
				"fortunes": {
					"0": 1.0,
					"1": 1.0,
					"2": 1.0,
					"3": 1.0
				}
			}
		],
		"dim": "Dim 0: overworld"
	},
	{
		"block": "dungeontactics:flower_bramble:0",
		"distrib": "0,0.0;10,0.0;11,7.8125E-5;12,0.0;14,0.0;15,1.5625E-4;16,0.0;34,0.0;35,7.8125E-5;36,7.8125E-5;37,3.90625E-5;38,0.0;",
		"silktouch": false,
		"dropsList": [
			{
				"itemStack": "dungeontactics:flower_bramble:0",
				"fortunes": {
					"0": 1.0,
					"1": 1.0,
					"2": 1.0,
					"3": 1.0
				}
			}
		],
		"dim": "Dim 0: overworld"
	},
	{
		"block": "dungeontactics:flower_xp:0",
		"distrib": "0,0.0;10,0.0;11,7.8125E-5;12,0.0;15,0.0;16,7.8125E-5;17,0.0;62,0.0;63,3.90625E-5;64,0.0;",
		"silktouch": false,
		"dropsList": [
			{
				"itemStack": "dungeontactics:flower_xp:0",
				"fortunes": {
					"0": 1.0,
					"1": 1.0,
					"2": 1.0,
					"3": 1.0
				}
			}
		],
		"dim": "Dim 0: overworld"
	},
	{
		"block": "chisel:basalt2:7",
		"distrib": "0,0.0;1,0.009804687;2,0.0184375;3,0.026757812;4,0.03714844;5,0.049804688;6,0.046914063;7,0.04890625;8,0.037421875;9,0.031484377;10,0.026367188;11,0.0;",
		"silktouch": false,
		"dim": "Dim 0: overworld"
	},
	{
		"block": "mysticalworld:amethyst_ore:0",
		"distrib": "0,0.0;2,0.0;3,3.90625E-5;4,4.296875E-4;5,3.90625E-4;6,3.125E-4;7,5.859375E-4;8,7.8125E-4;9,7.03125E-4;10,3.90625E-4;11,5.078125E-4;12,2.734375E-4;13,3.515625E-4;14,3.125E-4;15,3.90625E-4;16,5.859375E-4;17,5.859375E-4;18,2.34375E-4;19,1.5625E-4;20,4.6875E-4;21,3.125E-4;22,3.125E-4;23,6.25E-4;24,3.125E-4;25,5.078125E-4;26,7.8125E-4;27,6.640625E-4;28,5.46875E-4;29,2.34375E-4;30,7.8125E-5;31,0.0;",
		"silktouch": true,
		"dropsList": [
			{
				"itemStack": "mysticalworld:amethyst_gem:0",
				"fortunes": {
					"0": 1.0,
					"1": 1.3374,
					"2": 1.7597,
					"3": 2.1998
				}
			}
		],
		"dim": "Dim 0: overworld"
	},
	{
		"block": "quark:roots:0",
		"distrib": "0,0.0;13,0.0;14,2.34375E-4;15,7.8125E-4;16,0.0021875;17,0.0018359375;18,0.0014453125;19,8.984375E-4;20,8.59375E-4;21,0.00109375;22,0.0012109375;23,0.0010546875;24,9.765625E-4;25,7.03125E-4;26,6.640625E-4;27,8.984375E-4;28,0.00109375;29,0.0015234374;30,9.765625E-4;31,7.03125E-4;32,8.203125E-4;33,7.421875E-4;34,8.203125E-4;35,0.0016015625;36,0.0013671875;37,0.001171875;38,7.8125E-4;39,7.421875E-4;40,6.25E-4;41,8.59375E-4;42,0.001171875;43,0.0012890626;44,0.0011328125;45,0.001171875;46,9.375E-4;47,6.640625E-4;48,3.515625E-4;49,3.90625E-4;50,3.90625E-4;51,7.8125E-5;52,0.0;",
		"silktouch": false,
		"dropsList": [
			{
				"itemStack": "quark:root:0",
				"fortunes": {
					"0": 0.1007,
					"1": 0.0971,
					"2": 0.0997,
					"3": 0.1011
				}
			}
		],
		"dim": "Dim 0: overworld"
	},
	{
		"block": "bewitchment:amethyst_ore:0",
		"distrib": "0,0.0;7,0.0;8,2.734375E-4;9,3.90625E-4;10,7.8125E-4;11,6.25E-4;12,7.8125E-4;13,6.640625E-4;14,3.515625E-4;15,3.125E-4;16,4.296875E-4;17,1.953125E-4;18,6.25E-4;19,3.515625E-4;20,4.6875E-4;21,8.984375E-4;22,7.03125E-4;23,4.6875E-4;24,0.0011328125;25,3.90625E-4;26,6.25E-4;27,1.953125E-4;28,4.6875E-4;29,5.46875E-4;30,5.859375E-4;31,6.640625E-4;32,5.46875E-4;33,8.203125E-4;34,4.296875E-4;35,3.125E-4;36,7.8125E-5;37,5.859375E-4;38,3.515625E-4;39,3.125E-4;40,4.296875E-4;41,0.0;",
		"silktouch": false,
		"dim": "Dim 0: overworld"
	},
	{
		"block": "taiga:duranite_ore:0",
		"distrib": "0,0.0;45,0.0;46,3.90625E-5;47,0.0;",
		"silktouch": false,
		"dim": "Dim 0: overworld"
	},
	{
		"block": "mekanism:saltblock:0",
		"distrib": "0,0.0;34,0.0;35,7.8125E-5;36,1.5625E-4;37,0.0;55,0.0;56,1.5625E-4;57,0.001484375;58,0.001875;59,0.002265625;60,0.0046484377;61,0.032070313;62,7.8125E-5;63,0.0;",
		"silktouch": true,
		"dropsList": [
			{
				"itemStack": "mekanism:salt:0",
				"fortunes": {
					"0": 4.0,
					"1": 4.0,
					"2": 4.0,
					"3": 4.0
				}
			}
		],
		"dim": "Dim 0: overworld"
	},
	{
		"block": "taiga:jauxum_ore:0",
		"distrib": "0,0.0;8,0.0;9,3.90625E-5;10,0.0;11,3.90625E-5;14,3.90625E-5;15,0.0;44,0.0;45,3.90625E-5;46,0.0;",
		"silktouch": false,
		"dim": "Dim 0: overworld"
	},
	{
		"block": "quark:elder_sea_lantern:0",
		"distrib": "0,0.0;14,0.0;15,3.90625E-5;16,0.0;",
		"silktouch": true,
		"dropsList": [
			{
				"itemStack": "minecraft:prismarine_crystals:0",
				"fortunes": {
					"0": 2.5011,
					"1": 3.008,
					"2": 3.513,
					"3": 3.864
				}
			}
		],
		"dim": "Dim 0: overworld"
	},
	{
		"block": "actuallyadditions:item_canola_seed:0",
		"distrib": "0,0.0;62,0.0;63,3.90625E-5;64,0.0;65,3.90625E-5;66,0.0;",
		"silktouch": false,
		"dropsList": [
			{
				"itemStack": "actuallyadditions:item_canola_seed:0",
				"fortunes": {
					"0": 1.7027,
					"1": 2.2743,
					"2": 2.8564,
					"3": 3.4229
				}
			},
			{
				"itemStack": "actuallyadditions:item_misc:13",
				"fortunes": {
					"0": 3.0055,
					"1": 2.9981,
					"2": 3.0109,
					"3": 3.0036
				}
			}
		],
		"dim": "Dim 0: overworld"
	},
	{
		"block": "actuallyadditions:block_crystal_cluster_diamond:0",
		"distrib": "0,0.0;16,0.0;17,3.90625E-5;18,0.0;",
		"silktouch": true,
		"dropsList": [
			{
				"itemStack": "actuallyadditions:item_crystal_shard:2",
				"fortunes": {
					"0": 3.9904,
					"1": 3.9924,
					"2": 3.9799,
					"3": 4.0243
				}
			}
		],
		"dim": "Dim 0: overworld"
	},
	{
		"block": "bewitchment:silver_ore:0",
		"distrib": "0,0.0;7,0.0;8,2.34375E-4;9,0.001015625;10,0.0017578125;11,0.00171875;12,0.001484375;13,0.0017578125;14,0.0010546875;15,0.001015625;16,0.001171875;17,8.984375E-4;18,0.0015625;19,0.0015234374;20,8.59375E-4;21,0.00125;22,0.0013671875;23,0.001015625;24,0.001015625;25,0.0012890626;26,0.0012109375;27,0.0011328125;28,0.001328125;29,6.25E-4;30,7.421875E-4;31,0.00109375;32,6.25E-4;33,0.001484375;34,0.001328125;35,0.00140625;36,0.00140625;37,0.0011328125;38,7.8125E-4;39,5.859375E-4;40,9.375E-4;41,0.0017578125;42,0.0017578125;43,0.0012109375;44,7.03125E-4;45,8.59375E-4;46,8.984375E-4;47,0.00140625;48,3.90625E-4;49,2.734375E-4;50,4.6875E-4;51,5.859375E-4;52,3.90625E-4;53,3.125E-4;54,3.515625E-4;55,4.6875E-4;56,4.296875E-4;57,5.46875E-4;58,7.8125E-5;59,1.953125E-4;60,7.8125E-5;61,7.8125E-5;62,0.0;",
		"silktouch": false,
		"dim": "Dim 0: overworld"
	},
	{
		"block": "dungeontactics:stonequartz_ore:0",
		"distrib": "0,0.0;1,5.078125E-4;2,0.001796875;3,0.0031640625;4,0.0041796877;5,0.005078125;6,0.0052734376;7,0.0046484377;8,0.005234375;9,0.00515625;10,0.0059765624;11,0.00609375;12,0.00515625;13,0.003203125;14,1.171875E-4;15,0.0;",
		"silktouch": true,
		"dropsList": [
			{
				"itemStack": "minecraft:quartz:0",
				"fortunes": {
					"0": 1.0,
					"1": 1.3304,
					"2": 1.7432,
					"3": 2.2046
				}
			}
		],
		"dim": "Dim 0: overworld"
	},
	{
		"block": "chisel:limestone2:7",
		"distrib": "0,0.0;28,0.0;29,7.8125E-5;30,0.0062109376;31,0.018515624;32,0.032851562;33,0.04078125;34,0.036484376;35,0.03828125;36,0.039726563;37,0.043828126;38,0.047460936;39,0.043007813;40,0.039492186;41,0.034882814;42,0.03671875;43,0.038867187;44,0.03738281;45,0.03328125;46,0.030703126;47,0.028945312;48,0.021015625;49,0.016953126;50,0.014101562;51,0.018945312;52,0.018164063;53,0.016523438;54,0.019179687;55,0.017695313;56,0.01296875;57,0.012109375;58,0.013554688;59,0.010078125;60,0.0062109376;61,0.0038671875;62,0.00203125;63,4.6875E-4;64,0.0;",
		"silktouch": false,
		"dim": "Dim 0: overworld"
	},
	{
		"block": "dungeontactics:flower_bark:0",
		"distrib": "0,0.0;16,0.0;17,7.8125E-5;18,0.0;19,7.8125E-5;20,0.0;23,0.0;24,1.171875E-4;25,0.0;51,0.0;52,7.8125E-5;53,3.90625E-5;54,0.0;",
		"silktouch": false,
		"dropsList": [
			{
				"itemStack": "dungeontactics:flower_bark:0",
				"fortunes": {
					"0": 1.0,
					"1": 1.0,
					"2": 1.0,
					"3": 1.0
				}
			}
		],
		"dim": "Dim 0: overworld"
	},
	{
		"block": "minecraft:gold_ore:0",
		"distrib": "0,0.0;1,3.125E-4;2,4.6875E-4;3,3.515625E-4;4,8.984375E-4;5,0.001171875;6,0.001484375;7,0.0017578125;8,0.001953125;9,0.001796875;10,0.0015234374;11,0.0015234374;12,0.001484375;13,0.0016015625;14,0.0017578125;15,0.001796875;16,0.00109375;17,0.002109375;18,0.0028515626;19,0.0017578125;20,0.0016015625;21,0.001640625;22,0.0017578125;23,0.0030859376;24,0.0026953125;25,0.0015625;26,0.0013671875;27,0.001484375;28,0.002421875;29,0.0015625;30,9.375E-4;31,2.734375E-4;32,0.0;",
		"silktouch": false,
		"dim": "Dim 0: overworld"
	},
	{
		"block": "mysticalworld:silver_ore:0",
		"distrib": "0,0.0;1,5.46875E-4;2,8.984375E-4;3,0.001171875;4,0.002421875;5,0.0030859376;6,0.0023828126;7,0.001875;8,0.00203125;9,0.003046875;10,0.003671875;11,0.0017578125;12,0.0025390624;13,0.0025;14,0.002265625;15,0.0015234374;16,0.001953125;17,0.00140625;18,0.0012109375;19,0.0019921875;20,0.0022265625;21,0.002578125;22,0.0026171876;23,0.0022265625;24,0.001640625;25,0.001171875;26,7.421875E-4;27,1.5625E-4;28,0.0;",
		"silktouch": false,
		"dim": "Dim 0: overworld"
	},
	{
		"block": "minecraft:stonebrick:0",
		"distrib": "0,0.0;14,0.0;15,0.0021875;16,3.90625E-4;17,2.734375E-4;18,4.6875E-4;19,5.46875E-4;20,2.734375E-4;21,2.34375E-4;22,8.203125E-4;23,0.0011328125;24,0.0;65,0.0;66,0.008203125;67,0.0067578126;68,7.03125E-4;69,5.859375E-4;70,0.0;71,3.125E-4;72,7.03125E-4;73,0.0;74,0.005;75,0.0067578126;76,0.005;77,0.00109375;78,0.0;",
		"silktouch": false,
		"dim": "Dim 0: overworld"
	},
	{
		"block": "mca:rose_gold_ore:0",
		"distrib": "0,0.0;9,0.0;10,0.001328125;11,0.0040234374;12,0.002421875;13,0.0024609375;14,0.0025390624;15,0.00140625;16,0.00140625;17,0.0024609375;18,0.00171875;19,0.0016796875;20,0.001484375;21,0.001640625;22,0.0017578125;23,0.001171875;24,9.765625E-4;25,0.0016015625;26,0.0016015625;27,0.001875;28,0.0016015625;29,0.0020703124;30,0.00203125;31,0.00125;32,8.984375E-4;33,0.0013671875;34,0.0012890626;35,6.640625E-4;36,0.0;",
		"silktouch": false,
		"dim": "Dim 0: overworld"
	},
	{
		"block": "taiga:ovium_ore:0",
		"distrib": "0,0.0;25,0.0;26,3.90625E-5;27,0.0;31,0.0;32,3.90625E-5;33,0.0;",
		"silktouch": false,
		"dim": "Dim 0: overworld"
	},
	{
		"block": "quark:andesite_speleothem:0",
		"distrib": "0,0.0;16,0.0;17,3.90625E-5;18,3.90625E-5;19,0.0;",
		"silktouch": true,
		"dim": "Dim 0: overworld"
	},
	{
		"block": "minecraft:mossy_cobblestone:0",
		"distrib": "0,0.0;15,0.0;16,7.8125E-4;17,8.59375E-4;18,9.765625E-4;19,5.859375E-4;20,9.375E-4;21,9.375E-4;22,0.001640625;23,8.984375E-4;24,0.0;27,0.0;28,0.0014453125;29,0.0;46,0.0;47,0.00109375;48,0.0;49,1.171875E-4;50,6.25E-4;51,4.296875E-4;52,5.078125E-4;53,4.296875E-4;54,5.078125E-4;55,7.8125E-4;56,7.03125E-4;57,4.296875E-4;58,5.859375E-4;59,3.90625E-4;60,3.515625E-4;61,3.90625E-4;62,2.734375E-4;63,1.953125E-4;64,0.0;",
		"silktouch": false,
		"dim": "Dim 0: overworld"
	},
	{
		"block": "minecraft:stonebrick:2",
		"distrib": "0,0.0;14,0.0;15,0.0019140625;16,2.34375E-4;17,3.515625E-4;18,2.34375E-4;19,6.25E-4;20,1.171875E-4;21,3.125E-4;22,9.765625E-4;23,0.0010546875;24,0.0;65,0.0;66,3.125E-4;67,2.34375E-4;68,2.734375E-4;69,5.078125E-4;70,3.515625E-4;71,0.0;",
		"silktouch": false,
		"dim": "Dim 0: overworld"
	},
	{
		"block": "minecraft:leaves:2",
		"distrib": "0,0.0;68,0.0;69,3.90625E-5;70,0.0;",
		"silktouch": true,
		"dropsList": [
			{
				"itemStack": "minecraft:sapling:2",
				"fortunes": {
					"0": 0.0479,
					"1": 0.0622,
					"2": 0.083,
					"3": 0.1055
				}
			}
		],
		"dim": "Dim 0: overworld"
	},
	{
		"block": "minecraft:leaves:1",
		"distrib": "0,0.0;64,0.0;65,1.5625E-4;66,3.90625E-4;67,5.078125E-4;68,0.00109375;69,0.0016015625;70,0.00109375;71,8.984375E-4;72,8.203125E-4;73,7.421875E-4;74,7.421875E-4;75,7.03125E-4;76,5.46875E-4;77,7.03125E-4;79,7.03125E-4;80,0.0;",
		"silktouch": true,
		"dropsList": [
			{
				"itemStack": "minecraft:sapling:1",
				"fortunes": {
					"0": 0.0496,
					"1": 0.0621,
					"2": 0.0855,
					"3": 0.0983
				}
			}
		],
		"dim": "Dim 0: overworld"
	},
	{
		"block": "minecraft:stonebrick:1",
		"distrib": "0,0.0;14,0.0;15,0.0019921875;16,3.125E-4;17,3.125E-4;18,2.34375E-4;19,5.859375E-4;20,3.125E-4;21,1.5625E-4;22,5.859375E-4;23,0.0012109375;24,0.0;65,0.0;66,0.0028515626;67,7.03125E-4;68,7.421875E-4;69,1.171875E-4;70,0.0;71,1.5625E-4;72,3.90625E-4;73,0.0;74,0.0;75,8.984375E-4;76,6.25E-4;77,3.125E-4;78,0.0;",
		"silktouch": false,
		"dim": "Dim 0: overworld"
	},
	{
		"block": "minecraft:stonebrick:3",
		"distrib": "0,0.0;15,0.0;16,7.8125E-5;17,0.0;66,0.0;67,3.125E-4;68,0.0;69,0.0;70,5.859375E-4;71,7.8125E-4;72,5.46875E-4;73,0.00265625;74,0.0;",
		"silktouch": false,
		"dim": "Dim 0: overworld"
	},
	{
		"block": "minecraft:log:0",
		"distrib": "0,0.0;8,0.0;9,7.8125E-5;12,7.8125E-5;13,2.34375E-4;14,1.5625E-4;15,3.90625E-5;16,3.90625E-5;17,0.0;19,0.0;20,3.90625E-5;21,3.90625E-5;22,7.8125E-5;23,3.90625E-5;25,3.90625E-5;26,7.8125E-5;27,3.90625E-5;30,3.90625E-5;31,1.5625E-4;32,1.953125E-4;33,1.171875E-4;34,3.90625E-5;35,0.0;61,0.0;62,2.734375E-4;63,4.6875E-4;64,0.0;",
		"silktouch": false,
		"dim": "Dim 0: overworld"
	},
	{
		"block": "mysticalworld:copper_ore:0",
		"distrib": "0,0.0;1,5.46875E-4;2,0.0014453125;3,0.002421875;4,0.002734375;5,0.0031640625;6,0.003828125;7,0.003828125;8,0.0025;9,0.00203125;10,0.0021484375;11,0.003359375;12,0.0027734374;13,0.0023828126;14,0.004765625;15,0.003828125;16,0.003515625;17,0.0037109375;18,0.0025390624;19,0.00234375;20,0.0026171876;21,0.002265625;22,0.0023828126;23,0.0030859376;24,0.00375;25,0.0040234374;26,0.0023828126;27,0.0013671875;28,0.0023046874;29,0.0034375;30,0.004375;31,0.0035546876;32,0.0026953125;33,0.001640625;34,0.0025390624;35,0.0028125;36,0.0022265625;37,0.003046875;38,0.003515625;39,0.0021484375;40,9.375E-4;41,0.0017578125;42,0.0019140625;43,0.0023828126;44,0.00328125;45,0.003125;46,0.0030859376;47,0.0021484375;48,0.001328125;49,6.640625E-4;50,2.34375E-4;51,3.125E-4;52,6.640625E-4;53,9.765625E-4;54,6.25E-4;55,0.001015625;56,8.984375E-4;57,3.125E-4;58,2.734375E-4;59,2.34375E-4;60,4.6875E-4;61,7.8125E-5;62,0.0;",
		"silktouch": false,
		"dim": "Dim 0: overworld"
	},
	{
		"block": "minecraft:log:1",
		"distrib": "0,0.0;46,0.0;47,1.171875E-4;48,0.0;62,0.0;63,3.90625E-5;64,3.90625E-5;65,2.734375E-4;66,1.5625E-4;67,1.171875E-4;68,2.34375E-4;69,1.953125E-4;70,1.953125E-4;71,2.34375E-4;72,2.734375E-4;73,7.8125E-5;74,1.953125E-4;75,1.953125E-4;76,7.8125E-5;77,1.953125E-4;78,1.171875E-4;79,1.171875E-4;80,0.0;",
		"silktouch": false,
		"dim": "Dim 0: overworld"
	},
	{
		"block": "actuallyadditions:block_misc:3",
		"distrib": "0,0.0;1,6.25E-4;2,0.00140625;3,0.0012109375;4,0.002109375;5,0.0028515626;6,0.0021484375;7,0.0034375;8,0.0036328125;9,0.0028125;10,0.0025390624;11,0.002578125;12,0.003359375;13,0.0023828126;14,0.003046875;15,0.00234375;16,0.001796875;17,0.002421875;18,0.0024609375;19,0.0023046874;20,0.0025;21,0.002265625;22,0.0015234374;23,0.0019140625;24,0.0021484375;25,0.0024609375;26,0.0026171876;27,0.00234375;28,0.0029296875;29,0.0024609375;30,0.002421875;31,0.0024609375;32,0.0026953125;33,0.0032421874;34,0.0025;35,0.0027734374;36,0.0023046874;37,0.001953125;38,0.0016015625;39,0.0018359375;40,0.00171875;41,0.001484375;42,0.0023046874;43,0.001171875;44,0.0;",
		"silktouch": false,
		"dim": "Dim 0: overworld"
	},
	{
		"block": "techreborn:ore:4",
		"distrib": "0,0.0;6,0.0;7,7.8125E-5;8,9.375E-4;9,0.0019140625;10,0.001796875;11,0.002109375;12,0.0015234374;13,0.001953125;14,0.0021484375;15,0.0021875;16,0.0016796875;17,0.0020703124;18,0.0026171876;19,0.00109375;20,0.0014453125;21,0.001328125;22,0.0012109375;23,0.001953125;24,0.0026171876;25,0.0021875;26,0.002734375;27,0.001171875;28,0.001640625;29,0.001953125;30,0.0015234374;31,0.00171875;32,0.001796875;33,0.0025390624;34,0.0022265625;35,0.001484375;36,0.0015234374;37,0.0030078124;38,0.0029296875;39,0.0029296875;40,0.001796875;41,0.0022265625;42,0.0015625;43,0.00171875;44,0.002578125;45,0.001875;46,0.0017578125;47,0.001015625;48,3.125E-4;49,5.46875E-4;50,0.001171875;51,0.0011328125;52,0.0012109375;53,9.765625E-4;54,8.203125E-4;55,3.90625E-4;56,7.03125E-4;57,1.5625E-4;58,3.125E-4;59,7.8125E-5;60,0.0;",
		"silktouch": false,
		"dim": "Dim 0: overworld"
	},
	{
		"block": "tconstruct:slime_vine_blue:0",
		"distrib": "0,0.0;158,0.0;159,3.90625E-5;160,0.0;",
		"silktouch": false,
		"dim": "Dim 0: overworld"
	},
	{
		"block": "thermalfoundation:ore:5",
		"distrib": "0,0.0;1,0.0;2,1.171875E-4;3,1.5625E-4;4,6.640625E-4;5,0.00109375;6,0.00125;7,0.0018359375;8,0.0017578125;9,0.001328125;10,9.375E-4;11,7.421875E-4;12,9.765625E-4;13,0.001015625;14,0.0010546875;15,8.59375E-4;17,8.59375E-4;18,6.25E-4;19,2.34375E-4;20,0.0;",
		"silktouch": false,
		"dim": "Dim 0: overworld"
	},
	{
		"block": "thermalfoundation:ore:2",
		"distrib": "0,0.0;1,0.0;2,3.90625E-5;3,5.46875E-4;4,0.001953125;5,0.0023046874;6,0.002421875;7,0.0028515626;8,0.0033203126;9,0.002578125;10,0.003046875;11,0.0028125;12,0.00265625;13,0.0022265625;14,0.0034375;15,0.002890625;16,0.0028125;17,0.00234375;18,0.002109375;19,0.0026171876;20,0.0019921875;21,0.001484375;22,0.00171875;23,0.001875;24,0.0012109375;25,0.00125;26,0.0019921875;27,0.00265625;28,0.0015625;29,3.125E-4;30,1.171875E-4;31,1.5625E-4;32,1.171875E-4;33,7.8125E-5;34,3.90625E-5;35,0.0;",
		"silktouch": false,
		"dim": "Dim 0: overworld"
	},
	{
		"block": "techreborn:ore:2",
		"distrib": "0,0.0;6,0.0;7,7.8125E-5;8,3.90625E-4;9,7.8125E-4;10,9.375E-4;11,4.6875E-4;12,6.25E-4;13,2.34375E-4;14,6.25E-4;15,9.765625E-4;16,0.001015625;17,4.6875E-4;18,8.59375E-4;19,3.125E-4;20,3.125E-4;21,4.296875E-4;22,3.515625E-4;23,8.203125E-4;24,7.03125E-4;25,0.001015625;26,3.90625E-4;27,3.515625E-4;28,5.078125E-4;29,5.078125E-4;30,3.515625E-4;31,8.203125E-4;32,6.640625E-4;33,0.0010546875;34,5.46875E-4;35,3.90625E-4;36,5.078125E-4;37,6.640625E-4;38,5.46875E-4;39,5.46875E-4;40,3.90625E-4;42,3.90625E-4;43,6.640625E-4;44,5.46875E-4;45,3.90625E-4;46,4.6875E-4;47,2.34375E-4;48,7.03125E-4;49,1.171875E-4;50,4.6875E-4;51,3.515625E-4;52,6.640625E-4;53,3.125E-4;54,5.46875E-4;55,2.34375E-4;57,2.34375E-4;58,1.5625E-4;59,0.0;",
		"silktouch": true,
		"dropsList": [
			{
				"itemStack": "techreborn:gem:0",
				"fortunes": {
					"0": 1.4957,
					"1": 2.0046,
					"2": 2.6207,
					"3": 3.3076
				}
			}
		],
		"dim": "Dim 0: overworld"
	},
	{
		"block": "quark:granite_speleothem:0",
		"distrib": "0,0.0;12,0.0;13,3.90625E-5;15,3.90625E-5;16,0.0;33,0.0;34,3.90625E-5;35,3.90625E-5;36,0.0;41,0.0;42,3.90625E-5;43,3.90625E-5;44,7.8125E-5;45,3.90625E-5;46,7.8125E-5;47,3.90625E-5;48,3.90625E-5;49,0.0;",
		"silktouch": true,
		"dim": "Dim 0: overworld"
	},
	{
		"block": "thermalfoundation:ore:3",
		"distrib": "0,0.0;2,0.0;3,1.953125E-4;4,5.46875E-4;5,5.859375E-4;6,5.859375E-4;7,0.001484375;8,0.0021484375;9,0.003046875;10,0.0024609375;11,0.002734375;12,0.0031640625;13,0.0033203126;14,0.0036328125;15,0.00421875;16,0.00296875;17,0.0029296875;18,0.0025390624;19,0.0027734374;20,0.0030859376;21,0.0031640625;22,0.002578125;23,0.0016796875;24,0.0021875;25,0.0016796875;26,0.0021484375;27,0.0034375;28,0.0025;29,0.002109375;30,0.0021484375;31,0.0016015625;32,0.001015625;33,8.203125E-4;34,7.8125E-4;35,0.0;",
		"silktouch": false,
		"dim": "Dim 0: overworld"
	},
	{
		"block": "techreborn:ore:3",
		"distrib": "0,0.0;7,0.0;8,2.34375E-4;9,4.6875E-4;10,2.734375E-4;11,6.25E-4;12,4.296875E-4;13,7.8125E-4;14,3.515625E-4;15,6.640625E-4;16,9.375E-4;17,5.46875E-4;18,5.859375E-4;19,6.640625E-4;20,1.5625E-4;21,5.46875E-4;22,6.640625E-4;23,6.25E-4;24,6.640625E-4;25,8.203125E-4;26,0.0;27,3.90625E-4;28,6.640625E-4;29,5.078125E-4;30,7.8125E-4;31,8.59375E-4;32,8.203125E-4;33,0.001015625;34,3.90625E-4;35,1.5625E-4;36,8.59375E-4;37,4.6875E-4;38,4.296875E-4;39,8.59375E-4;40,8.984375E-4;41,3.515625E-4;42,6.25E-4;43,5.46875E-4;44,7.8125E-5;45,5.46875E-4;46,3.515625E-4;47,6.25E-4;48,3.90625E-4;49,2.34375E-4;50,4.6875E-4;51,3.125E-4;52,1.953125E-4;53,7.03125E-4;54,1.953125E-4;55,1.5625E-4;56,1.5625E-4;57,5.859375E-4;58,1.5625E-4;59,0.0;",
		"silktouch": true,
		"dropsList": [
			{
				"itemStack": "techreborn:gem:1",
				"fortunes": {
					"0": 1.5064,
					"1": 2.0016,
					"2": 2.6227,
					"3": 3.3071
				}
			}
		],
		"dim": "Dim 0: overworld"
	},
	{
		"block": "techreborn:ore:0",
		"distrib": "0,0.0;6,0.0;7,6.640625E-4;8,0.0027734374;9,0.004765625;10,0.006171875;11,0.00578125;12,0.004921875;13,0.006875;14,0.0042578126;15,0.003984375;16,0.0034765624;17,0.0038671875;18,0.00265625;19,0.003125;20,0.005546875;21,0.00671875;22,0.00328125;23,0.0035546876;24,0.0044140625;25,0.00390625;26,0.0046875;27,0.0053515625;28,0.0051171873;29,0.003984375;30,0.005546875;31,0.006953125;32,0.004140625;33,0.004375;34,0.005546875;35,0.004140625;36,0.00484375;37,0.00453125;38,0.00421875;39,0.003671875;40,0.0052734376;41,0.005546875;42,0.0047265626;43,0.0055078124;44,0.00453125;45,0.0049609374;46,0.00421875;47,0.0035546876;48,0.0016796875;49,0.0024609375;50,0.001796875;51,0.0021875;52,0.0015625;53,0.002109375;54,0.0020703124;55,0.0028515626;56,0.002265625;57,0.0012890626;58,3.125E-4;59,7.8125E-5;60,0.0;",
		"silktouch": false,
		"dim": "Dim 0: overworld"
	},
	{
		"block": "thermalfoundation:ore:0",
		"distrib": "0,0.0;16,0.0;17,7.8125E-5;18,1.5625E-4;19,3.515625E-4;20,6.640625E-4;21,8.203125E-4;22,5.078125E-4;23,4.6875E-4;24,8.203125E-4;25,0.001015625;26,0.0011328125;27,5.859375E-4;28,5.46875E-4;29,6.25E-4;30,0.0010546875;31,7.03125E-4;32,8.203125E-4;33,8.203125E-4;34,5.46875E-4;35,4.6875E-4;36,5.859375E-4;37,5.46875E-4;38,0.0017578125;39,0.003125;40,0.0042578126;41,0.0056640627;42,0.0051953127;43,0.00390625;44,0.0027734374;45,0.00421875;46,0.00421875;47,0.0028515626;48,0.001484375;49,0.0015625;50,0.0023828126;51,0.0024609375;52,0.0028515626;53,0.00265625;54,0.0023828126;55,0.0025;56,0.0013671875;57,0.00109375;58,0.0015234374;59,0.0013671875;60,0.0010546875;61,1.5625E-4;62,2.34375E-4;63,5.859375E-4;64,0.0;",
		"silktouch": false,
		"dim": "Dim 0: overworld"
	},
	{
		"block": "techreborn:ore:1",
		"distrib": "0,0.0;4,0.0;5,1.953125E-4;6,1.5625E-4;7,3.90625E-4;8,1.5625E-4;9,7.8125E-5;10,2.34375E-4;11,2.34375E-4;12,1.171875E-4;13,3.125E-4;14,3.125E-4;15,7.8125E-5;16,3.90625E-5;17,1.5625E-4;18,1.171875E-4;19,1.171875E-4;20,2.734375E-4;21,7.8125E-5;22,1.5625E-4;24,1.5625E-4;25,7.8125E-5;26,2.34375E-4;27,3.90625E-5;28,1.953125E-4;29,1.953125E-4;30,1.5625E-4;31,3.90625E-5;32,1.953125E-4;33,1.171875E-4;34,1.171875E-4;35,3.90625E-5;36,1.953125E-4;37,2.734375E-4;38,1.5625E-4;39,1.953125E-4;40,2.34375E-4;41,1.5625E-4;42,1.953125E-4;43,2.34375E-4;44,1.953125E-4;45,1.5625E-4;46,2.734375E-4;47,1.171875E-4;48,7.8125E-5;49,0.0;50,3.90625E-5;51,1.5625E-4;52,7.8125E-5;53,3.90625E-5;54,0.0;55,7.8125E-5;56,7.8125E-5;57,3.90625E-5;59,3.90625E-5;60,0.0;",
		"silktouch": false,
		"dim": "Dim 0: overworld"
	},
	{
		"block": "thermalfoundation:ore:1",
		"distrib": "0,0.0;16,0.0;17,3.515625E-4;18,0.001015625;19,0.001484375;20,0.0030859376;21,0.0035546876;22,0.0040234374;23,0.0035546876;24,0.0034765624;25,0.0046875;26,0.0047265626;27,0.0034375;28,0.0029296875;29,0.0028515626;30,0.0035546876;31,0.003359375;32,0.0048046876;33,0.004140625;34,0.0024609375;35,0.003046875;36,0.0031640625;37,0.003515625;38,0.0029296875;39,0.0021484375;40,0.002421875;41,0.002890625;42,0.0040625;43,0.002734375;44,0.0018359375;45,0.002109375;46,0.0026953125;47,0.003125;48,0.00234375;49,0.001875;50,0.001796875;51,0.001796875;52,9.765625E-4;53,2.34375E-4;54,0.0;",
		"silktouch": false,
		"dim": "Dim 0: overworld"
	},
	{
		"block": "taiga:karmesine_ore:0",
		"distrib": "0,0.0;2,0.0;3,3.90625E-5;4,0.0;29,0.0;30,7.8125E-5;31,0.0;52,0.0;53,3.90625E-5;54,0.0;",
		"silktouch": false,
		"dim": "Dim 0: overworld"
	},
	{
		"block": "dungeontactics:flower_feather:0",
		"distrib": "0,0.0;41,0.0;42,3.90625E-5;43,1.171875E-4;44,0.0;",
		"silktouch": false,
		"dropsList": [
			{
				"itemStack": "dungeontactics:flower_feather:0",
				"fortunes": {
					"0": 1.0,
					"1": 1.0,
					"2": 1.0,
					"3": 1.0
				}
			}
		],
		"dim": "Dim 0: overworld"
	},
	{
		"block": "minecraft:brown_mushroom:0",
		"distrib": "0,0.0;12,0.0;13,3.90625E-5;14,0.0;46,0.0;47,1.5625E-4;48,0.0;62,0.0;63,1.171875E-4;64,0.0;",
		"silktouch": false,
		"dropsList": [
			{
				"itemStack": "minecraft:brown_mushroom:0",
				"fortunes": {
					"0": 1.0,
					"1": 1.0,
					"2": 1.0,
					"3": 1.0
				}
			}
		],
		"dim": "Dim 0: overworld"
	},
	{
		"block": "actuallyadditions:item_flax_seed:0",
		"distrib": "0,0.0;62,0.0;63,3.90625E-5;64,0.0;",
		"silktouch": false,
		"dropsList": [
			{
				"itemStack": "actuallyadditions:item_flax_seed:0",
				"fortunes": {
					"0": 1.7013,
					"1": 2.2879,
					"2": 2.8603,
					"3": 3.4261
				}
			},
			{
				"itemStack": "minecraft:string:0",
				"fortunes": {
					"0": 3.4836,
					"1": 3.519,
					"2": 3.4985,
					"3": 3.5055
				}
			}
		],
		"dim": "Dim 0: overworld"
	},
	{
		"block": "taiga:basalt_block:0",
		"distrib": "0,0.0;1,0.0;2,7.8125E-5;3,2.34375E-4;4,4.296875E-4;5,8.59375E-4;6,8.203125E-4;7,3.125E-4;8,1.5625E-4;9,4.296875E-4;10,0.00171875;11,0.0;20,0.0;21,7.8125E-5;22,0.0;27,0.0;28,1.171875E-4;29,0.0;30,3.90625E-5;31,3.90625E-5;32,0.0;52,0.0;53,2.34375E-4;54,0.0;",
		"silktouch": false,
		"dim": "Dim 0: overworld"
	},
	{
		"block": "minecraft:bedrock:0",
		"distrib": "0,0.99949217;1,0.79753906;2,0.59839845;3,0.39453125;4,0.19773437;5,0.0;",
		"silktouch": true,
		"dim": "Dim 0: overworld"
	},
	{
		"block": "minecraft:reeds:0",
		"distrib": "0,0.0;62,0.0;63,1.171875E-4;64,0.0;",
		"silktouch": false,
		"dropsList": [
			{
				"itemStack": "minecraft:reeds:0",
				"fortunes": {
					"0": 1.0,
					"1": 1.0,
					"2": 1.0,
					"3": 1.0
				}
			}
		],
		"dim": "Dim 0: overworld"
	},
	{
		"block": "quark:slate:0",
		"distrib": "0,0.0;11,0.0;12,0.003203125;13,0.00546875;14,0.007851562;15,0.009609375;16,0.011523438;17,0.013515625;18,0.014960937;19,0.015820313;20,0.016914062;21,0.017460937;22,0.018164063;23,0.018164063;24,0.018554688;25,0.018515624;26,0.0184375;27,0.018125;28,0.018125;29,0.01734375;30,0.016796876;31,0.015664063;32,0.014921875;33,0.013515625;34,0.01171875;35,0.010234375;36,0.008710938;37,0.006171875;38,0.0034765624;39,0.0;43,0.0;44,2.734375E-4;45,7.03125E-4;46,0.0012890626;47,0.00171875;48,0.00203125;49,0.0025390624;50,0.0026953125;51,0.0030859376;52,0.003359375;53,0.0039453125;54,0.00453125;55,0.0051953127;56,0.0054296874;57,0.005703125;58,0.0059375;59,0.0059375;60,0.00265625;61,0.0017578125;62,5.859375E-4;63,0.0;",
		"silktouch": false,
		"dim": "Dim 0: overworld"
	},
	{
		"block": "randomthings:glowingmushroom:0",
		"distrib": "0,0.0;13,0.0;14,7.8125E-5;15,0.0;27,0.0;28,3.90625E-5;29,0.0;41,0.0;42,3.90625E-5;43,0.0;53,0.0;54,3.90625E-5;55,0.0;",
		"silktouch": false,
		"dropsList": [
			{
				"itemStack": "randomthings:glowingmushroom:0",
				"fortunes": {
					"0": 1.0,
					"1": 1.0,
					"2": 1.0,
					"3": 1.0
				}
			}
		],
		"dim": "Dim 0: overworld"
	},
	{
		"block": "minecraft:iron_ore:0",
		"distrib": "0,0.0;1,0.0022265625;2,0.0049609374;3,0.00546875;4,0.007890625;5,0.009296875;6,0.00828125;7,0.009101562;8,0.010664063;9,0.0107421875;10,0.010351563;11,0.010429688;12,0.00953125;13,0.009960937;14,0.008164062;15,0.0072265626;16,0.008203125;17,0.008359375;18,0.007265625;19,0.0077734375;20,0.00875;21,0.009101562;22,0.008046875;23,0.00921875;24,0.009960937;25,0.010585938;26,0.0070703123;27,0.00765625;28,0.0071875;29,0.00671875;30,0.0072265626;31,0.008359375;32,0.008359375;33,0.008203125;34,0.010429688;35,0.01;36,0.009453125;37,0.008242187;38,0.008320313;39,0.008203125;40,0.007265625;41,0.005859375;42,0.00625;43,0.0062890626;44,0.008085937;45,0.0065234373;46,0.0044921874;47,0.004765625;48,0.0026171876;49,0.0028125;50,0.00296875;51,0.002890625;52,0.0034375;53,0.003359375;54,0.00453125;55,0.0031640625;56,0.0030078124;57,0.002265625;58,0.0015234374;59,0.0019140625;60,0.0010546875;61,7.421875E-4;62,1.5625E-4;63,0.0;",
		"silktouch": false,
		"dim": "Dim 0: overworld"
	},
	{
		"block": "minecraft:vine:0",
		"distrib": "0,0.0;62,0.0;63,0.0052734376;64,0.0;66,0.0;67,1.171875E-4;68,9.765625E-4;69,0.0011328125;71,0.0011328125;72,0.00109375;73,0.0010546875;74,7.8125E-4;75,6.640625E-4;76,0.0;",
		"silktouch": false,
		"dim": "Dim 0: overworld"
	},
	{
		"block": "ebwizardry:crystal_ore:0",
		"distrib": "0,0.0;2,0.0;3,4.296875E-4;4,0.0015625;5,0.0020703124;6,0.003046875;7,0.0019140625;8,0.0027734374;9,0.001484375;10,0.002265625;11,0.0021484375;12,0.002109375;13,0.0026171876;14,0.001640625;15,0.0021484375;16,0.00234375;17,0.0010546875;18,0.0016796875;19,0.0025;20,0.0023828126;21,0.0012109375;22,0.0015625;23,0.001640625;24,0.00171875;25,0.0016015625;26,0.0017578125;27,0.002109375;28,7.421875E-4;29,7.8125E-5;30,0.0;",
		"silktouch": true,
		"dropsList": [
			{
				"itemStack": "ebwizardry:magic_crystal:0",
				"fortunes": {
					"0": 1.9914,
					"1": 2.6397,
					"2": 3.5221,
					"3": 4.4151
				}
			}
		],
		"dim": "Dim 0: overworld"
	},
	{
		"block": "actuallyadditions:block_crystal_cluster_redstone:0",
		"distrib": "0,0.0;30,0.0;31,3.90625E-5;32,0.0;",
		"silktouch": true,
		"dropsList": [
			{
				"itemStack": "actuallyadditions:item_crystal_shard:0",
				"fortunes": {
					"0": 3.9924,
					"1": 3.9871,
					"2": 3.9862,
					"3": 3.9931
				}
			}
		],
		"dim": "Dim 0: overworld"
	},
	{
		"block": "randomthings:pitcherplant:0",
		"distrib": "0,0.0;62,0.0;63,3.90625E-5;64,0.0;",
		"silktouch": false,
		"dropsList": [
			{
				"itemStack": "randomthings:pitcherplant:0",
				"fortunes": {
					"0": 1.0,
					"1": 1.0,
					"2": 1.0,
					"3": 1.0
				}
			}
		],
		"dim": "Dim 0: overworld"
	},
	{
		"block": "minecraft:sand:0",
		"distrib": "0,0.0;36,0.0;37,1.5625E-4;38,0.0;45,0.0;46,5.46875E-4;47,0.001171875;48,0.0;53,0.0;54,0.003203125;55,0.00609375;56,0.0066796876;57,0.0062890626;58,0.005546875;59,0.009414063;60,0.014570313;61,0.0109375;62,0.0075390623;63,0.0026953125;64,0.0;",
		"silktouch": false,
		"dim": "Dim 0: overworld"
	},
	{
		"block": "minecraft:air:0",
		"distrib": "0,0.0;1,0.0;2,0.01125;3,0.025859375;4,0.0409375;5,0.050585937;6,0.04074219;7,0.030117188;8,0.029726563;9,0.0309375;10,0.038984373;11,0.046757814;12,0.051171876;13,0.053046875;14,0.061953124;15,0.07125;16,0.08859375;17,0.10074219;18,0.09964844;19,0.08761719;20,0.07128906;21,0.07035156;22,0.07457031;23,0.076054685;24,0.06996094;25,0.06578125;26,0.065078124;27,0.072460935;28,0.07773437;29,0.081875;30,0.076992184;31,0.066875;32,0.07820313;33,0.083359376;34,0.08195312;35,0.08847656;36,0.09699219;37,0.107929684;38,0.11898437;39,0.12945312;40,0.1355078;41,0.14578125;42,0.14875;43,0.155;44,0.16296875;45,0.19992188;46,0.22382812;47,0.25925782;48,0.051171876;49,0.050507814;50,0.047109377;51,0.044101562;52,0.04328125;53,0.04886719;54,0.049648438;55,0.04902344;56,0.049296875;57,0.05269531;58,0.05921875;59,0.067734376;60,0.076992184;61,0.09859375;62,0.16269532;63,0.21503906;64,0.035390627;65,0.048320312;66,0.05953125;67,0.06851563;68,0.07488281;69,0.07527344;70,0.07558594;71,0.07558594;72,0.07476562;73,0.07441406;74,0.071523435;75,0.07074219;76,0.071523435;77,0.0765625;78,0.07890625;79,0.0790625;80,0.03;155,0.03;156,0.029960938;157,0.029882813;158,0.02984375;159,0.029726563;160,0.0;",
		"silktouch": false,
		"dim": "Dim 0: overworld"
	},
	{
		"block": "minecraft:leaves:0",
		"distrib": "0,0.0;8,0.0;9,7.421875E-4;10,2.734375E-4;11,0.0;12,2.734375E-4;13,0.00109375;14,0.0016015625;15,0.001875;16,0.0015234374;17,8.59375E-4;18,3.90625E-4;19,1.171875E-4;20,3.125E-4;21,2.734375E-4;22,3.125E-4;23,2.34375E-4;24,8.203125E-4;25,8.59375E-4;26,2.34375E-4;27,1.953125E-4;28,0.0;29,3.90625E-4;30,0.001484375;31,0.0016015625;32,0.0014453125;33,0.0018359375;34,0.0021484375;35,0.001796875;36,9.375E-4;37,1.5625E-4;38,0.0;",
		"silktouch": true,
		"dropsList": [
			{
				"itemStack": "minecraft:apple:0",
				"fortunes": {
					"0": 0.0047,
					"1": 0.0061,
					"2": 0.0064,
					"3": 0.0077
				}
			},
			{
				"itemStack": "minecraft:sapling:0",
				"fortunes": {
					"0": 0.0488,
					"1": 0.0619,
					"2": 0.0794,
					"3": 0.0976
				}
			}
		],
		"dim": "Dim 0: overworld"
	},
	{
		"block": "techreborn:ore2:1",
		"distrib": "0,0.0;16,0.0;17,5.078125E-4;18,0.0041796877;19,0.006953125;20,0.0070703123;21,0.006015625;22,0.0059765624;23,0.004296875;24,0.0069921874;25,0.008203125;26,0.006953125;27,0.00578125;28,0.005859375;29,0.0054296874;30,0.0069921874;31,0.0055859373;32,0.005390625;33,0.00453125;34,0.00640625;35,0.00734375;36,0.0047265626;37,0.006015625;38,0.0072265626;39,0.006484375;40,0.006328125;41,0.006875;42,0.0054296874;43,0.0051953127;44,0.00625;45,0.00640625;46,0.0055859373;47,0.00375;48,0.0031640625;49,0.0028515626;50,0.0033203126;51,0.0024609375;52,0.0033984375;53,0.002734375;54,0.002265625;55,0.0024609375;56,0.001953125;57,0.00140625;58,0.0010546875;59,1.171875E-4;60,0.0;",
		"silktouch": false,
		"dim": "Dim 0: overworld"
	},
	{
		"block": "techreborn:ore2:0",
		"distrib": "0,0.0;16,0.0;17,7.8125E-4;18,0.003515625;19,0.0065625;20,0.005390625;21,0.0065234373;22,0.0067578126;23,0.0071875;24,0.0062890626;25,0.006796875;26,0.0058203125;27,0.005234375;28,0.0051953127;29,0.0073828124;30,0.006328125;31,0.0060546873;32,0.006484375;33,0.005078125;34,0.0054296874;35,0.005859375;36,0.0055078124;37,0.0060546873;38,0.0064453124;39,0.003671875;40,0.0052734376;41,0.00453125;42,0.0045703123;43,0.005859375;44,0.0059765624;45,0.00640625;46,0.0072265626;47,0.00328125;48,0.0026953125;49,0.002421875;50,0.002734375;51,0.003046875;52,0.002578125;53,0.0025;54,0.0033203126;55,0.003359375;56,0.002890625;57,0.0023828126;58,0.001015625;59,3.515625E-4;60,0.0;",
		"silktouch": false,
		"dim": "Dim 0: overworld"
	},
	{
		"block": "dungeontactics:flower_ailment:0",
		"distrib": "0,0.0;12,0.0;13,1.171875E-4;14,0.0;15,0.0;16,3.90625E-5;17,7.8125E-5;18,0.0;43,0.0;44,7.8125E-5;45,3.90625E-5;46,1.171875E-4;47,0.0;",
		"silktouch": false,
		"dropsList": [
			{
				"itemStack": "dungeontactics:flower_ailment:0",
				"fortunes": {
					"0": 1.0,
					"1": 1.0,
					"2": 1.0,
					"3": 1.0
				}
			}
		],
		"dim": "Dim 0: overworld"
	},
	{
		"block": "chisel:marble2:7",
		"distrib": "0,0.0;28,0.0;29,1.953125E-4;30,0.008242187;31,0.02515625;32,0.042929687;33,0.0528125;34,0.058320314;35,0.05738281;36,0.04796875;37,0.047851562;38,0.050390624;39,0.0528125;40,0.048476562;41,0.051484376;42,0.0496875;43,0.050078124;44,0.0475;45,0.04484375;46,0.045585938;47,0.040390626;48,0.025703125;49,0.026875;50,0.023125;51,0.022265624;52,0.023710938;53,0.025820313;54,0.025546875;55,0.026484376;56,0.021953125;57,0.01328125;58,0.011289063;59,0.01328125;60,0.0125;61,0.0073046875;62,0.0036328125;63,0.0019140625;64,0.0;",
		"silktouch": false,
		"dim": "Dim 0: overworld"
	},
	{
		"block": "minecraft:redstone_torch:0",
		"distrib": "0,0.0;66,0.0;67,1.171875E-4;68,0.0;",
		"silktouch": false,
		"dropsList": [
			{
				"itemStack": "minecraft:redstone_torch:0",
				"fortunes": {
					"0": 1.0,
					"1": 1.0,
					"2": 1.0,
					"3": 1.0
				}
			}
		],
		"dim": "Dim 0: overworld"
	},
	{
		"block": "minecraft:red_flower:0",
		"distrib": "0,0.0;18,0.0;19,7.8125E-5;20,0.0;21,0.0;22,3.90625E-5;23,0.0;",
		"silktouch": false,
		"dropsList": [
			{
				"itemStack": "minecraft:red_flower:0",
				"fortunes": {
					"0": 1.0,
					"1": 1.0,
					"2": 1.0,
					"3": 1.0
				}
			}
		],
		"dim": "Dim 0: overworld"
	},
	{
		"block": "taiga:eezo_ore:0",
		"distrib": "0,5.078125E-4;1,0.001796875;2,0.00296875;3,0.0040625;4,0.0023828126;5,0.0;",
		"silktouch": false,
		"dim": "Dim 0: overworld"
	},
	{
		"block": "dungeontactics:silver_ore:0",
		"distrib": "0,0.0;1,5.859375E-4;2,0.0025;3,0.0031640625;4,0.0030078124;5,0.00453125;6,0.005390625;7,0.005078125;8,0.004609375;9,0.006953125;10,0.0039453125;11,0.005703125;12,0.0046484377;13,0.0025390624;14,4.6875E-4;15,0.0;",
		"silktouch": false,
		"dim": "Dim 0: overworld"
	},
	{
		"block": "minecraft:red_flower:1",
		"distrib": "0,0.0;18,0.0;19,3.90625E-5;20,0.0;21,3.90625E-5;22,7.8125E-5;23,1.171875E-4;24,0.0;",
		"silktouch": false,
		"dropsList": [
			{
				"itemStack": "minecraft:red_flower:1",
				"fortunes": {
					"0": 1.0,
					"1": 1.0,
					"2": 1.0,
					"3": 1.0
				}
			}
		],
		"dim": "Dim 0: overworld"
	},
	{
		"block": "minecraft:emerald_ore:0",
		"distrib": "0,0.0;26,0.0;27,7.8125E-5;28,0.0;",
		"silktouch": true,
		"dropsList": [
			{
				"itemStack": "minecraft:emerald:0",
				"fortunes": {
					"0": 1.0,
					"1": 1.3362,
					"2": 1.7495,
					"3": 2.1965
				}
			}
		],
		"dim": "Dim 0: overworld"
	},
	{
		"block": "minecraft:diamond_ore:0",
		"distrib": "0,0.0;1,5.859375E-4;2,3.125E-4;3,5.46875E-4;4,5.859375E-4;5,0.0013671875;6,8.984375E-4;7,0.00109375;8,0.0019140625;9,0.0015234374;10,0.0014453125;11,0.0016015625;12,0.001796875;13,0.0016796875;14,8.203125E-4;15,4.296875E-4;16,3.90625E-5;17,0.0;",
		"silktouch": true,
		"dropsList": [
			{
				"itemStack": "minecraft:diamond:0",
				"fortunes": {
					"0": 1.0,
					"1": 1.3373,
					"2": 1.7496,
					"3": 2.2086
				}
			}
		],
		"dim": "Dim 0: overworld"
	},
	{
		"block": "techreborn:ore:12",
		"distrib": "0,0.0;16,0.0;17,1.5625E-4;18,0.00171875;19,0.003046875;20,0.003828125;21,0.0026953125;22,0.003828125;23,0.0047265626;24,0.0044140625;25,0.0053125;26,0.00375;27,0.00328125;28,0.00375;29,0.0041015623;30,0.0039453125;31,0.00359375;32,0.0033984375;33,0.0033203126;34,0.0034765624;35,0.004375;36,0.0048046876;37,0.004296875;38,0.003203125;39,0.00296875;40,0.00375;41,0.00484375;42,0.0033984375;43,0.00359375;44,0.0033203126;45,0.0040625;46,0.003359375;47,0.002734375;48,0.0023046874;49,0.0011328125;50,0.001171875;51,0.001171875;52,0.002265625;53,0.0028515626;54,0.00140625;55,0.00203125;56,0.0016796875;57,0.0015234374;58,7.421875E-4;59,1.171875E-4;60,0.0;",
		"silktouch": false,
		"dim": "Dim 0: overworld"
	},
	{
		"block": "techreborn:ore:13",
		"distrib": "0,0.0;16,0.0;17,2.34375E-4;18,0.002265625;19,0.0031640625;20,0.0046875;21,0.00515625;22,0.004765625;23,0.0041796877;24,0.003125;25,0.0039453125;26,0.0036328125;27,0.0033984375;28,0.0031640625;29,0.004921875;30,0.00359375;31,0.00390625;32,0.0044921874;33,0.003125;34,0.003671875;35,0.0026171876;36,0.003125;37,0.0049609374;38,0.0026171876;39,0.0042578126;40,0.003125;41,0.0030078124;42,0.0036328125;43,0.003828125;44,0.0043359376;45,0.003671875;46,0.0028125;47,0.003046875;48,0.00140625;49,0.0016796875;50,0.001328125;51,0.0011328125;52,0.00109375;53,0.0021484375;54,0.00125;55,0.0016015625;56,0.001328125;57,0.00140625;58,7.8125E-4;59,7.8125E-5;60,0.0;",
		"silktouch": false,
		"dim": "Dim 0: overworld"
	},
	{
		"block": "minecraft:planks:1",
		"distrib": "0,0.0;40,0.0;41,3.90625E-5;42,2.734375E-4;43,9.765625E-4;44,5.078125E-4;45,4.6875E-4;46,0.00171875;47,5.078125E-4;48,0.0;",
		"silktouch": false,
		"dim": "Dim 0: overworld"
	},
	{
		"block": "minecraft:planks:0",
		"distrib": "0,0.0;40,0.0;41,6.25E-4;42,9.765625E-4;43,0.0021484375;44,0.001328125;45,0.001484375;46,0.0048046876;47,0.0013671875;48,0.0;",
		"silktouch": false,
		"dim": "Dim 0: overworld"
	},
	{
		"block": "immersiveengineering:ore:3",
		"distrib": "0,0.0;5,0.0;6,6.640625E-4;7,0.0022265625;8,0.0015625;9,0.0016796875;10,0.001015625;11,0.0012109375;12,0.0015625;13,0.0015625;14,0.001171875;15,8.59375E-4;16,0.0015625;17,0.001171875;18,0.0015625;19,0.0012109375;20,0.0016796875;21,0.0015625;22,0.0013671875;23,8.203125E-4;24,7.8125E-4;25,8.984375E-4;26,9.375E-4;27,9.765625E-4;28,0.00109375;29,0.001484375;30,0.00140625;31,0.001484375;32,0.001640625;33,0.00140625;34,0.0011328125;35,9.375E-4;36,0.00125;37,0.00140625;38,8.59375E-4;39,2.34375E-4;40,0.0;",
		"silktouch": false,
		"dim": "Dim 0: overworld"
	},
	{
		"block": "immersiveengineering:ore:2",
		"distrib": "0,0.0;4,0.0;5,7.8125E-5;6,1.953125E-4;7,0.0012109375;8,0.0012109375;9,0.001015625;10,7.8125E-4;11,0.00140625;12,0.0019140625;13,0.0020703124;14,0.00203125;15,0.002109375;16,6.25E-4;17,0.0012109375;18,0.001796875;19,0.0016796875;20,9.375E-4;21,7.421875E-4;22,0.001953125;23,0.001171875;24,0.001171875;25,9.765625E-4;26,0.001171875;27,0.001484375;28,0.0015625;29,0.0011328125;30,0.0012890626;31,0.001171875;32,0.0013671875;33,0.0011328125;34,5.46875E-4;35,1.5625E-4;36,0.0;",
		"silktouch": false,
		"dim": "Dim 0: overworld"
	},
	{
		"block": "minecraft:stone_stairs:0",
		"distrib": "0,0.0;70,0.0;71,2.734375E-4;72,2.734375E-4;73,0.0;",
		"silktouch": false,
		"dropsList": [
			{
				"itemStack": "minecraft:stone_stairs:0",
				"fortunes": {
					"0": 1.0,
					"1": 1.0,
					"2": 1.0,
					"3": 1.0
				}
			}
		],
		"dim": "Dim 0: overworld"
	},
	{
		"block": "immersiveengineering:ore:5",
		"distrib": "0,0.0;6,0.0;7,1.5625E-4;8,1.5625E-4;9,0.0;10,3.125E-4;11,0.0;13,0.0;14,1.5625E-4;15,1.5625E-4;16,0.0;18,0.0;19,3.515625E-4;20,0.0;21,1.171875E-4;22,0.0;",
		"silktouch": false,
		"dim": "Dim 0: overworld"
	},
	{
		"block": "immersiveengineering:ore:4",
		"distrib": "0,0.0;5,0.0;6,0.001171875;7,8.984375E-4;8,0.0011328125;9,0.001015625;10,0.00140625;11,0.001640625;12,0.0014453125;13,8.203125E-4;14,0.001328125;15,0.0016796875;16,0.0016015625;17,6.640625E-4;18,9.765625E-4;19,0.0012109375;20,8.984375E-4;21,0.0012109375;22,7.421875E-4;23,2.734375E-4;24,0.0;",
		"silktouch": false,
		"dim": "Dim 0: overworld"
	},
	{
		"block": "immersiveengineering:ore:1",
		"distrib": "0,0.0;37,0.0;38,1.5625E-4;39,3.515625E-4;40,1.5625E-4;42,1.5625E-4;43,7.8125E-5;44,0.0;46,0.0;47,7.8125E-5;48,1.5625E-4;49,1.5625E-4;50,0.0;51,1.5625E-4;52,0.0;53,1.5625E-4;54,0.0;",
		"silktouch": false,
		"dim": "Dim 0: overworld"
	},
	{
		"block": "immersiveengineering:ore:0",
		"distrib": "0,0.0;36,0.0;37,1.953125E-4;38,0.0019921875;39,0.0043359376;40,0.0025390624;41,0.0042578126;42,0.00453125;43,0.0041796877;44,0.0037890626;45,0.001875;46,0.001953125;47,0.0016015625;48,0.0015625;49,0.001640625;50,0.00109375;51,7.8125E-4;52,0.0012890626;53,0.0020703124;54,0.00140625;55,7.03125E-4;56,0.0018359375;57,0.0013671875;58,0.0012890626;59,0.0012890626;60,8.59375E-4;61,3.90625E-4;62,2.734375E-4;63,7.8125E-5;64,0.0;",
		"silktouch": false,
		"dim": "Dim 0: overworld"
	},
	{
		"block": "minecraft:torch:0",
		"distrib": "0,0.0;67,0.0;68,3.125E-4;69,0.0;71,0.0;72,3.125E-4;73,0.0;74,2.34375E-4;75,0.0;",
		"silktouch": false,
		"dropsList": [
			{
				"itemStack": "minecraft:torch:0",
				"fortunes": {
					"0": 1.0,
					"1": 1.0,
					"2": 1.0,
					"3": 1.0
				}
			}
		],
		"dim": "Dim 0: overworld"
	},
	{
		"block": "dungeontactics:flower_sanguine:0",
		"distrib": "0,0.0;20,0.0;21,1.171875E-4;22,0.0;30,0.0;31,1.171875E-4;32,0.0;",
		"silktouch": false,
		"dropsList": [
			{
				"itemStack": "dungeontactics:flower_sanguine:0",
				"fortunes": {
					"0": 1.0,
					"1": 1.0,
					"2": 1.0,
					"3": 1.0
				}
			}
		],
		"dim": "Dim 0: overworld"
	},
	{
		"block": "minecraft:red_mushroom:0",
		"distrib": "0,0.0;50,0.0;51,3.90625E-5;52,7.8125E-5;53,7.8125E-5;54,0.0;",
		"silktouch": false,
		"dropsList": [
			{
				"itemStack": "minecraft:red_mushroom:0",
				"fortunes": {
					"0": 1.0,
					"1": 1.0,
					"2": 1.0,
					"3": 1.0
				}
			}
		],
		"dim": "Dim 0: overworld"
	},
	{
		"block": "libvulpes:ore0:9",
		"distrib": "0,0.0;1,3.90625E-5;2,2.34375E-4;3,5.078125E-4;4,3.90625E-4;5,5.46875E-4;6,0.001015625;7,7.8125E-4;8,0.0023046874;9,0.0030078124;10,0.0012109375;11,7.03125E-4;12,7.421875E-4;13,6.25E-4;14,4.6875E-4;15,5.078125E-4;16,8.59375E-4;17,0.00109375;18,7.03125E-4;19,0.0012890626;20,0.0023828126;21,0.001953125;22,0.0022265625;23,0.002265625;24,7.03125E-4;25,0.0;26,0.0;27,2.734375E-4;28,4.6875E-4;29,5.46875E-4;30,5.078125E-4;31,8.984375E-4;32,0.00109375;33,8.59375E-4;34,5.859375E-4;35,4.296875E-4;36,3.125E-4;37,3.90625E-4;38,1.5625E-4;39,2.34375E-4;40,4.296875E-4;41,6.25E-4;42,4.296875E-4;43,6.25E-4;44,8.59375E-4;45,3.515625E-4;46,3.125E-4;47,7.8125E-5;48,4.6875E-4;49,7.421875E-4;50,4.296875E-4;51,2.34375E-4;52,1.171875E-4;53,3.125E-4;54,4.6875E-4;55,3.90625E-4;56,0.0;57,1.5625E-4;58,1.953125E-4;59,3.90625E-5;60,0.0;",
		"silktouch": false,
		"dim": "Dim 0: overworld"
	},
	{
		"block": "minecraft:coal_ore:0",
		"distrib": "0,0.0;1,0.0028515626;2,0.007421875;3,0.012539063;4,0.0134375;5,0.015117187;6,0.01546875;7,0.01625;8,0.015585938;9,0.01625;10,0.017773438;11,0.016679687;12,0.016601562;13,0.016796876;14,0.016367188;15,0.014960937;16,0.01109375;17,0.011523438;18,0.012460938;19,0.01546875;20,0.016210938;21,0.013945312;22,0.013125;23,0.015039062;24,0.01640625;25,0.016015625;26,0.017890625;27,0.017695313;28,0.019335937;29,0.016953126;30,0.014335938;31,0.013789062;32,0.014609375;33,0.016015625;34,0.017304687;35,0.016835937;36,0.014960937;37,0.014882812;38,0.015390625;39,0.018085938;40,0.016757812;41,0.01421875;42,0.015507813;43,0.015390625;44,0.0134375;45,0.015117187;46,0.015078125;47,0.009179687;48,0.004375;49,0.0066796876;50,0.008945312;51,0.006796875;52,0.0053125;53,0.0053515625;54,0.00609375;55,0.00703125;56,0.005390625;57,0.005625;58,0.00625;59,0.0047265626;60,0.0038671875;61,0.002890625;62,0.0012109375;63,7.421875E-4;64,0.0;",
		"silktouch": true,
		"dropsList": [
			{
				"itemStack": "minecraft:coal:0",
				"fortunes": {
					"0": 1.0,
					"1": 1.3319,
					"2": 1.7563,
					"3": 2.194
				}
			}
		],
		"dim": "Dim 0: overworld"
	},
	{
		"block": "minecraft:grass:0",
		"distrib": "0,0.0;5,0.0;6,5.46875E-4;7,0.001640625;8,0.0016015625;9,0.00109375;10,3.125E-4;11,1.5625E-4;12,3.125E-4;13,3.125E-4;14,1.5625E-4;15,1.953125E-4;16,0.001796875;17,0.0011328125;18,0.0033203126;19,0.0026171876;20,0.0027734374;21,0.001796875;22,0.0021875;23,0.0010546875;24,0.0011328125;25,8.203125E-4;26,0.0026953125;27,7.03125E-4;28,6.640625E-4;29,3.515625E-4;30,4.6875E-4;31,5.859375E-4;32,7.8125E-5;33,2.734375E-4;34,2.734375E-4;35,1.171875E-4;36,0.0;61,0.0;62,0.0465625;63,0.05636719;64,0.016367188;65,0.0078125;66,7.8125E-5;67,0.0;",
		"silktouch": true,
		"dropsList": [
			{
				"itemStack": "minecraft:dirt:0",
				"fortunes": {
					"0": 1.0,
					"1": 1.0,
					"2": 1.0,
					"3": 1.0
				}
			}
		],
		"dim": "Dim 0: overworld"
	},
	{
		"block": "libvulpes:ore0:8",
		"distrib": "0,0.0;1,2.34375E-4;2,3.515625E-4;3,4.6875E-4;4,8.984375E-4;5,7.421875E-4;6,7.8125E-4;7,0.0015234374;8,0.00109375;9,0.001015625;10,0.001015625;11,4.296875E-4;12,4.6875E-4;13,8.984375E-4;14,8.984375E-4;15,8.203125E-4;16,8.203125E-4;17,0.00109375;18,0.001015625;19,7.03125E-4;20,6.640625E-4;21,7.8125E-4;22,8.203125E-4;23,0.001015625;24,9.765625E-4;25,4.296875E-4;26,6.25E-4;27,2.34375E-4;28,5.078125E-4;29,0.0010546875;30,0.0012890626;31,7.03125E-4;32,3.90625E-4;33,7.421875E-4;34,0.001015625;35,3.90625E-4;36,6.640625E-4;37,7.421875E-4;38,0.001015625;39,5.859375E-4;40,6.640625E-4;41,3.515625E-4;42,3.125E-4;43,5.859375E-4;44,9.375E-4;45,5.859375E-4;46,4.6875E-4;47,3.515625E-4;48,2.734375E-4;49,7.03125E-4;50,3.515625E-4;51,3.90625E-4;52,2.734375E-4;53,6.640625E-4;54,3.125E-4;55,4.296875E-4;56,1.953125E-4;57,1.5625E-4;58,1.953125E-4;59,1.953125E-4;60,1.5625E-4;61,2.34375E-4;62,1.5625E-4;63,0.0;",
		"silktouch": false,
		"dim": "Dim 0: overworld"
	},
	{
		"block": "minecraft:tallgrass:2",
		"distrib": "0,0.0;15,0.0;16,2.34375E-4;17,0.0;",
		"silktouch": false,
		"dropsList": [
			{
				"itemStack": "immersiveengineering:seed:0",
				"fortunes": {
					"0": 0.0114,
					"1": 0.0144,
					"2": 0.0131,
					"3": 0.0119
				}
			},
			{
				"itemStack": "roots:wildroot:0",
				"fortunes": {
					"0": 0.013,
					"1": 0.0128,
					"2": 0.0146,
					"3": 0.0128
				}
			},
			{
				"itemStack": "bewitchment:belladonna_seeds:0",
				"fortunes": {
					"0": 0.0077,
					"1": 0.0081,
					"2": 0.0084,
					"3": 0.0082
				}
			},
			{
				"itemStack": "bewitchment:mandrake_seeds:0",
				"fortunes": {
					"0": 0.0071,
					"1": 0.0091,
					"2": 0.0091,
					"3": 0.0095
				}
			},
			{
				"itemStack": "bewitchment:hellebore_seeds:0",
				"fortunes": {
					"0": 0.0073,
					"1": 0.0096,
					"2": 0.0083,
					"3": 0.0082
				}
			},
			{
				"itemStack": "bewitchment:wormwood_seeds:0",
				"fortunes": {
					"0": 0.0087,
					"1": 0.0084,
					"2": 0.0079,
					"3": 0.0106
				}
			},
			{
				"itemStack": "minecraft:wheat_seeds:0",
				"fortunes": {
					"0": 0.0266,
					"1": 0.0505,
					"2": 0.0777,
					"3": 0.1049
				}
			},
			{
				"itemStack": "mysticalworld:aubergine_seed:0",
				"fortunes": {
					"0": 0.0132,
					"1": 0.0131,
					"2": 0.0127,
					"3": 0.0143
				}
			},
			{
				"itemStack": "mysticalworld:silkworm_egg:0",
				"fortunes": {
					"0": 0.0028,
					"1": 0.0031,
					"2": 0.0037,
					"3": 0.0029
				}
			},
			{
				"itemStack": "extrautils2:enderlilly:0",
				"fortunes": {
					"0": 0.0021,
					"1": 0.003,
					"2": 0.0032,
					"3": 0.0026
				}
			},
			{
				"itemStack": "roots:terra_spores:0",
				"fortunes": {
					"0": 0.0133,
					"1": 0.0106,
					"2": 0.0158,
					"3": 0.0135
				}
			},
			{
				"itemStack": "bewitchment:aconitum_seeds:0",
				"fortunes": {
					"0": 0.0069,
					"1": 0.0077,
					"2": 0.0076,
					"3": 0.009
				}
			}
		],
		"dim": "Dim 0: overworld"
	},
	{
		"block": "minecraft:chest:0",
		"distrib": "0,0.0;15,0.0;16,3.90625E-5;17,0.0;22,0.0;23,3.90625E-5;24,0.0;28,0.0;29,3.90625E-5;30,0.0;47,0.0;48,3.90625E-5;49,0.0;",
		"silktouch": false,
		"dropsList": [
			{
				"itemStack": "minecraft:chest:0",
				"fortunes": {
					"0": 1.0,
					"1": 1.0,
					"2": 1.0,
					"3": 1.0
				}
			}
		],
		"dim": "Dim 0: overworld"
	},
	{
		"block": "minecraft:stone:5",
		"distrib": "0,0.0;1,8.59375E-4;2,0.0023046874;3,0.0025390624;4,0.0037109375;5,0.0026953125;6,0.00234375;7,0.0029296875;8,0.0040625;9,0.0040625;10,0.0037890626;11,0.0033984375;12,0.0029296875;13,0.0030078124;14,0.002578125;15,0.0030859376;16,0.00328125;17,0.0036328125;18,0.00359375;19,0.004765625;20,0.005703125;21,0.0055078124;22,0.0051171873;23,0.0056640627;24,0.0058203125;25,0.0052734376;26,0.0041796877;27,0.0033203126;28,0.00265625;29,0.003046875;30,0.0022265625;31,0.0026953125;32,0.00171875;33,8.984375E-4;34,7.03125E-4;35,9.765625E-4;36,0.001328125;37,0.00203125;38,0.0023828126;39,0.0033984375;40,0.003359375;41,0.00421875;42,0.0032421874;43,0.00265625;44,0.0016796875;45,0.001875;46,9.765625E-4;47,8.59375E-4;48,7.421875E-4;49,0.001015625;50,8.59375E-4;51,9.375E-4;52,8.59375E-4;53,7.421875E-4;54,7.03125E-4;55,0.0010546875;56,0.0017578125;57,0.001875;58,0.00234375;59,0.002421875;60,0.001171875;61,3.515625E-4;62,3.125E-4;63,4.6875E-4;64,0.0;",
		"silktouch": false,
		"dim": "Dim 0: overworld"
	},
	{
		"block": "minecraft:cobblestone:0",
		"distrib": "0,0.0;15,0.0;16,1.953125E-4;17,2.734375E-4;18,1.953125E-4;19,3.125E-4;20,1.171875E-4;21,1.171875E-4;22,3.90625E-4;23,5.46875E-4;24,4.296875E-4;26,4.296875E-4;27,0.0;28,4.6875E-4;29,7.421875E-4;32,7.421875E-4;33,0.0;46,0.0;47,4.296875E-4;48,7.421875E-4;49,0.001015625;50,0.001875;51,0.0018359375;52,0.0014453125;53,0.001484375;54,0.0013671875;55,0.001640625;56,0.0015234374;57,0.00109375;58,9.375E-4;59,0.00109375;60,0.0013671875;61,7.03125E-4;62,8.203125E-4;63,8.203125E-4;64,0.0;66,0.0;67,6.25E-4;68,3.125E-4;72,3.125E-4;73,0.0;74,4.6875E-4;75,0.0;",
		"silktouch": false,
		"dim": "Dim 0: overworld"
	},
	{
		"block": "dungeontactics:flower_fade:0",
		"distrib": "0,0.0;15,0.0;16,2.34375E-4;17,1.5625E-4;18,0.0;40,0.0;41,3.90625E-5;42,1.171875E-4;43,0.0;",
		"silktouch": false,
		"dropsList": [
			{
				"itemStack": "dungeontactics:flower_fade:0",
				"fortunes": {
					"0": 1.0,
					"1": 1.0,
					"2": 1.0,
					"3": 1.0
				}
			}
		],
		"dim": "Dim 0: overworld"
	},
	{
		"block": "minecraft:tallgrass:1",
		"distrib": "0,0.0;7,0.0;8,3.90625E-4;9,7.8125E-5;10,1.5625E-4;11,3.90625E-5;12,0.0;15,0.0;16,7.8125E-5;17,0.0;18,0.0;19,7.03125E-4;20,4.6875E-4;21,0.0012109375;22,3.125E-4;23,3.515625E-4;24,7.8125E-5;25,0.0;26,0.0;27,4.6875E-4;28,1.171875E-4;29,0.0;30,1.171875E-4;31,0.0;32,1.171875E-4;33,0.0;62,0.0;63,0.00625;64,4.6875E-4;65,1.953125E-4;66,3.90625E-5;67,0.0;",
		"silktouch": false,
		"dropsList": [
			{
				"itemStack": "roots:wildroot:0",
				"fortunes": {
					"0": 0.012,
					"1": 0.013,
					"2": 0.0109,
					"3": 0.0117
				}
			},
			{
				"itemStack": "immersiveengineering:seed:0",
				"fortunes": {
					"0": 0.0151,
					"1": 0.0117,
					"2": 0.0105,
					"3": 0.012
				}
			},
			{
				"itemStack": "bewitchment:belladonna_seeds:0",
				"fortunes": {
					"0": 0.0084,
					"1": 0.0093,
					"2": 0.0073,
					"3": 0.0092
				}
			},
			{
				"itemStack": "bewitchment:mandrake_seeds:0",
				"fortunes": {
					"0": 0.0078,
					"1": 0.0065,
					"2": 0.0069,
					"3": 0.0062
				}
			},
			{
				"itemStack": "bewitchment:hellebore_seeds:0",
				"fortunes": {
					"0": 0.0074,
					"1": 0.0084,
					"2": 0.0091,
					"3": 0.0086
				}
			},
			{
				"itemStack": "bewitchment:wormwood_seeds:0",
				"fortunes": {
					"0": 0.0087,
					"1": 0.0078,
					"2": 0.0094,
					"3": 0.0087
				}
			},
			{
				"itemStack": "minecraft:wheat_seeds:0",
				"fortunes": {
					"0": 0.0251,
					"1": 0.0551,
					"2": 0.0824,
					"3": 0.1023
				}
			},
			{
				"itemStack": "mysticalworld:aubergine_seed:0",
				"fortunes": {
					"0": 0.0134,
					"1": 0.0136,
					"2": 0.0157,
					"3": 0.0142
				}
			},
			{
				"itemStack": "mysticalworld:silkworm_egg:0",
				"fortunes": {
					"0": 0.0022,
					"1": 0.0031,
					"2": 0.003,
					"3": 0.0017
				}
			},
			{
				"itemStack": "roots:terra_spores:0",
				"fortunes": {
					"0": 0.0141,
					"1": 0.0124,
					"2": 0.0128,
					"3": 0.0121
				}
			},
			{
				"itemStack": "bewitchment:aconitum_seeds:0",
				"fortunes": {
					"0": 0.0078,
					"1": 0.0085,
					"2": 0.0083,
					"3": 0.0076
				}
			},
			{
				"itemStack": "extrautils2:enderlilly:0",
				"fortunes": {
					"0": 0.0025,
					"1": 0.0023,
					"2": 0.0022,
					"3": 0.0034
				}
			}
		],
		"dim": "Dim 0: overworld"
	},
	{
		"block": "minecraft:stone:3",
		"distrib": "0,0.0;1,0.0010546875;2,0.001484375;3,0.001875;4,0.0019921875;5,0.0025390624;6,0.002890625;7,0.003359375;8,0.003671875;9,0.0026171876;10,0.0019140625;11,0.0024609375;12,0.0015625;13,0.0019921875;14,0.001953125;15,0.003046875;16,0.0023828126;17,0.002421875;18,0.0034765624;19,0.00359375;20,0.003515625;21,0.0030859376;22,0.0032421874;23,0.0029296875;24,0.0025390624;25,0.0027734374;26,0.003203125;27,0.003046875;28,0.002734375;29,0.002578125;30,0.00265625;31,0.0017578125;32,0.0015625;33,0.0017578125;34,0.001640625;35,0.0016796875;36,0.0023046874;37,0.0030859376;38,0.003203125;39,0.0026953125;40,0.0031640625;42,0.0031640625;43,0.003984375;44,0.0049609374;45,0.0046484377;46,0.0034375;47,0.0019921875;48,1.953125E-4;49,3.90625E-5;50,7.03125E-4;51,0.001328125;52,0.0021875;53,0.0029296875;54,0.0037890626;55,0.0033203126;56,0.0021484375;57,6.25E-4;58,4.6875E-4;59,1.5625E-4;60,1.171875E-4;61,0.0;62,0.0;63,3.90625E-5;64,0.0;",
		"silktouch": false,
		"dim": "Dim 0: overworld"
	},
	{
		"block": "minecraft:skull:0",
		"distrib": "0,0.0;16,0.0;17,7.8125E-5;18,0.0;",
		"silktouch": false,
		"dropsList": [
			{
				"itemStack": "minecraft:skull:0",
				"fortunes": {
					"0": 1.0,
					"1": 1.0,
					"2": 1.0,
					"3": 1.0
				}
			}
		],
		"dim": "Dim 0: overworld"
	},
	{
		"block": "harvestcraft:soggygarden:0",
		"distrib": "0,0.0;62,0.0;63,3.90625E-5;64,0.0;",
		"silktouch": false,
		"dropsList": [
			{
				"itemStack": "harvestcraft:greengrapeitem:0",
				"fortunes": {
					"0": 0.1867,
					"1": 0.1864,
					"2": 0.1917,
					"3": 0.1875
				}
			},
			{
				"itemStack": "harvestcraft:cottonitem:0",
				"fortunes": {
					"0": 0.1887,
					"1": 0.1878,
					"2": 0.186,
					"3": 0.1927
				}
			},
			{
				"itemStack": "harvestcraft:milletitem:0",
				"fortunes": {
					"0": 0.1839,
					"1": 0.1799,
					"2": 0.1789,
					"3": 0.1829
				}
			},
			{
				"itemStack": "harvestcraft:cranberryitem:0",
				"fortunes": {
					"0": 0.1876,
					"1": 0.187,
					"2": 0.1777,
					"3": 0.1897
				}
			},
			{
				"itemStack": "harvestcraft:tomatilloitem:0",
				"fortunes": {
					"0": 0.1916,
					"1": 0.1852,
					"2": 0.1897,
					"3": 0.1856
				}
			},
			{
				"itemStack": "harvestcraft:spiceleafitem:0",
				"fortunes": {
					"0": 0.1945,
					"1": 0.1916,
					"2": 0.1892,
					"3": 0.1917
				}
			},
			{
				"itemStack": "harvestcraft:jicamaitem:0",
				"fortunes": {
					"0": 0.1824,
					"1": 0.1849,
					"2": 0.1904,
					"3": 0.1896
				}
			},
			{
				"itemStack": "harvestcraft:seaweeditem:0",
				"fortunes": {
					"0": 0.1905,
					"1": 0.1894,
					"2": 0.1871,
					"3": 0.1884
				}
			},
			{
				"itemStack": "harvestcraft:waterchestnutitem:0",
				"fortunes": {
					"0": 0.1891,
					"1": 0.1853,
					"2": 0.1846,
					"3": 0.1884
				}
			},
			{
				"itemStack": "harvestcraft:okraitem:0",
				"fortunes": {
					"0": 0.1881,
					"1": 0.1864,
					"2": 0.1865,
					"3": 0.1854
				}
			},
			{
				"itemStack": "harvestcraft:blueberryitem:0",
				"fortunes": {
					"0": 0.1943,
					"1": 0.1919,
					"2": 0.1895,
					"3": 0.187
				}
			},
			{
				"itemStack": "harvestcraft:riceitem:0",
				"fortunes": {
					"0": 0.1808,
					"1": 0.1911,
					"2": 0.1841,
					"3": 0.1805
				}
			},
			{
				"itemStack": "harvestcraft:mulberryitem:0",
				"fortunes": {
					"0": 0.1812,
					"1": 0.1859,
					"2": 0.1932,
					"3": 0.1837
				}
			},
			{
				"itemStack": "harvestcraft:kaleitem:0",
				"fortunes": {
					"0": 0.1842,
					"1": 0.1871,
					"2": 0.1978,
					"3": 0.1899
				}
			},
			{
				"itemStack": "harvestcraft:brusselsproutitem:0",
				"fortunes": {
					"0": 0.1895,
					"1": 0.1928,
					"2": 0.1853,
					"3": 0.1901
				}
			},
			{
				"itemStack": "harvestcraft:asparagusitem:0",
				"fortunes": {
					"0": 0.1869,
					"1": 0.1873,
					"2": 0.1883,
					"3": 0.1869
				}
			}
		],
		"dim": "Dim 0: overworld"
	},
	{
		"block": "dungeontactics:flower_cinder:0",
		"distrib": "0,0.0;13,0.0;14,1.171875E-4;15,0.0;16,7.8125E-5;17,0.0;19,0.0;20,7.8125E-5;21,3.90625E-5;22,3.90625E-5;23,0.0;45,0.0;46,1.5625E-4;47,3.90625E-5;48,0.0;",
		"silktouch": false,
		"dropsList": [
			{
				"itemStack": "dungeontactics:flower_cinder:0",
				"fortunes": {
					"0": 1.0,
					"1": 1.0,
					"2": 1.0,
					"3": 1.0
				}
			}
		],
		"dim": "Dim 0: overworld"
	},
	{
		"block": "bewitchment:salt_ore:0",
		"distrib": "0,0.0;7,0.0;8,3.125E-4;9,4.6875E-4;10,3.515625E-4;11,6.640625E-4;12,7.8125E-4;13,6.25E-4;14,4.296875E-4;15,7.421875E-4;16,7.421875E-4;17,6.25E-4;18,6.25E-4;19,4.6875E-4;20,5.078125E-4;21,5.46875E-4;22,3.125E-4;23,1.171875E-4;24,4.6875E-4;25,4.6875E-4;26,3.90625E-4;27,4.6875E-4;28,2.734375E-4;29,4.296875E-4;30,1.5625E-4;31,7.8125E-4;32,5.46875E-4;33,3.125E-4;34,1.953125E-4;35,0.0;36,2.34375E-4;37,5.859375E-4;38,2.34375E-4;39,7.421875E-4;40,3.90625E-4;41,2.734375E-4;42,3.90625E-5;43,0.0;44,5.46875E-4;45,7.03125E-4;46,2.34375E-4;47,1.953125E-4;48,2.734375E-4;49,3.90625E-5;50,5.859375E-4;51,1.5625E-4;52,5.46875E-4;53,0.001328125;54,3.125E-4;55,0.0;56,7.8125E-5;57,1.5625E-4;58,2.34375E-4;59,7.8125E-5;60,1.5625E-4;61,0.0;62,0.0;63,1.5625E-4;64,0.0;",
		"silktouch": false,
		"dim": "Dim 0: overworld"
	},
	{
		"block": "thermalfoundation:ore_fluid:2",
		"distrib": "0,0.0;1,3.125E-4;2,4.6875E-4;3,0.0;7,0.0;8,7.8125E-5;9,1.5625E-4;10,1.953125E-4;11,1.5625E-4;12,0.0;13,0.0;14,7.8125E-5;15,5.078125E-4;16,7.03125E-4;17,3.90625E-5;18,2.34375E-4;19,3.125E-4;20,0.0;",
		"silktouch": true,
		"dropsList": [
			{
				"itemStack": "thermalfoundation:material:893",
				"fortunes": {
					"0": 1.0,
					"1": 1.5012,
					"2": 2.0059,
					"3": 2.499
				}
			}
		],
		"dim": "Dim 0: overworld"
	},
	{
		"block": "thermalfoundation:ore_fluid:1",
		"distrib": "0,0.0;8,0.0;9,3.90625E-5;10,3.90625E-5;11,0.0;12,0.0;13,2.34375E-4;14,3.90625E-4;15,2.34375E-4;16,4.6875E-4;17,5.859375E-4;18,5.859375E-4;19,1.953125E-4;20,1.953125E-4;21,2.34375E-4;22,1.5625E-4;23,2.34375E-4;24,3.90625E-5;25,2.734375E-4;26,1.171875E-4;27,0.0;30,0.0;31,3.515625E-4;32,6.640625E-4;33,6.25E-4;34,2.34375E-4;35,2.34375E-4;36,3.90625E-4;37,8.984375E-4;38,8.203125E-4;39,4.296875E-4;41,4.296875E-4;42,3.515625E-4;43,4.296875E-4;44,5.859375E-4;45,2.34375E-4;46,2.34375E-4;47,0.0;53,0.0;54,1.953125E-4;55,2.34375E-4;56,0.0;59,0.0;60,3.125E-4;61,7.421875E-4;62,2.734375E-4;63,0.0;",
		"silktouch": true,
		"dropsList": [
			{
				"itemStack": "thermalfoundation:material:892",
				"fortunes": {
					"0": 1.0,
					"1": 1.5104,
					"2": 2.008,
					"3": 2.5099
				}
			}
		],
		"dim": "Dim 0: overworld"
	},
	{
		"block": "quark:roots_blue_flower:0",
		"distrib": "0,0.0;13,0.0;14,3.90625E-5;15,1.171875E-4;16,0.0;17,7.8125E-5;18,3.90625E-5;19,3.90625E-5;20,0.0;21,1.171875E-4;22,3.90625E-5;26,3.90625E-5;27,0.0;28,7.8125E-5;29,0.0;30,7.8125E-5;31,0.0;32,3.90625E-5;33,0.0;34,1.171875E-4;35,3.90625E-5;36,7.8125E-5;37,3.90625E-5;38,0.0;39,3.90625E-5;40,3.90625E-5;41,0.0;42,7.8125E-5;43,3.90625E-5;44,0.0;46,0.0;47,3.90625E-5;48,7.8125E-5;49,0.0;",
		"silktouch": false,
		"dropsList": [
			{
				"itemStack": "quark:root_flower:0",
				"fortunes": {
					"0": 1.0,
					"1": 1.0,
					"2": 1.0,
					"3": 1.0
				}
			}
		],
		"dim": "Dim 0: overworld"
	},
	{
		"block": "actuallyadditions:block_crystal_cluster_lapis:0",
		"distrib": "0,0.0;21,0.0;22,3.90625E-5;23,0.0;29,0.0;30,3.90625E-5;31,0.0;",
		"silktouch": true,
		"dropsList": [
			{
				"itemStack": "actuallyadditions:item_crystal_shard:1",
				"fortunes": {
					"0": 4.03,
					"1": 4.0252,
					"2": 4.0009,
					"3": 4.0179
				}
			}
		],
		"dim": "Dim 0: overworld"
	},
	{
		"block": "minecraft:stone:0",
		"distrib": "0,0.0;1,0.16140625;2,0.3111719;3,0.46710938;4,0.61269534;5,0.76277345;6,0.7698828;7,0.7630078;8,0.7613672;9,0.77015626;10,0.76671875;11,0.7809375;12,0.7701953;13,0.7491406;14,0.73476565;15,0.7143359;16,0.69320315;17,0.6726172;18,0.6560938;19,0.6501953;20,0.65691406;21,0.6513672;22,0.6448047;23,0.63640624;24,0.6372266;25,0.64070314;26,0.6440625;27,0.64882815;28,0.64804685;29,0.646875;30,0.64246094;31,0.62242186;32,0.60078126;33,0.58878905;34,0.58554685;35,0.575;36,0.5730078;37,0.56375;38,0.55796874;39,0.55695313;40,0.57125;41,0.56597656;42,0.56496096;43,0.5563281;44,0.53660154;45,0.5193359;46,0.50402343;47,0.41851562;48,0.2594922;49,0.2648047;50,0.2667969;51,0.27332032;52,0.27363282;53,0.26132813;54,0.2544922;55,0.24636719;56,0.2545703;57,0.23574218;58,0.17855468;59,0.13582031;60,0.10335937;61,0.0725;62,0.04109375;63,0.02921875;64,0.0;",
		"silktouch": true,
		"dropsList": [
			{
				"itemStack": "minecraft:cobblestone:0",
				"fortunes": {
					"0": 1.0,
					"1": 1.0,
					"2": 1.0,
					"3": 1.0
				}
			}
		],
		"dim": "Dim 0: overworld"
	},
	{
		"block": "minecraft:stone:1",
		"distrib": "0,0.0;1,5.859375E-4;2,0.0012109375;3,0.0016796875;4,0.00265625;5,0.00453125;6,0.0048828125;7,0.0055078124;8,0.005625;9,0.0055859373;10,0.00421875;11,0.004453125;12,0.0058984375;13,0.005078125;14,0.00390625;15,0.0021484375;16,0.0025;17,0.002578125;18,0.003125;19,0.00359375;20,0.003359375;21,0.0024609375;22,0.0012109375;23,0.0012109375;24,0.0019140625;25,0.0018359375;26,0.0018359375;27,0.001953125;28,0.001796875;29,0.001953125;30,0.0023046874;31,0.002109375;32,0.0021875;33,0.0025390624;34,0.002578125;35,0.0018359375;36,0.001796875;37,0.001484375;38,0.00140625;39,0.0036328125;40,0.003828125;41,0.0030078124;42,0.0030859376;43,0.003203125;44,0.0029296875;45,0.003125;46,0.0035546876;47,0.0038671875;48,0.0016015625;49,0.0019140625;50,0.002421875;51,0.002578125;52,0.002734375;53,0.0021484375;54,0.0017578125;55,0.00140625;56,0.001015625;57,5.859375E-4;58,3.125E-4;59,3.90625E-5;60,0.0;",
		"silktouch": false,
		"dim": "Dim 0: overworld"
	},
	{
		"block": "libvulpes:ore0:0",
		"distrib": "0,0.0;1,3.90625E-4;2,5.46875E-4;3,6.25E-4;4,7.421875E-4;5,7.421875E-4;6,4.6875E-4;7,0.0010546875;8,0.00125;9,0.0012109375;10,0.001484375;11,0.0013671875;12,0.0011328125;13,0.0012109375;14,0.0012890626;15,7.421875E-4;16,5.859375E-4;17,5.859375E-4;18,6.640625E-4;19,8.59375E-4;20,0.0011328125;21,0.001015625;22,9.375E-4;23,3.515625E-4;24,0.00109375;25,7.8125E-4;26,7.421875E-4;27,0.001171875;28,5.859375E-4;29,5.078125E-4;30,0.00140625;31,0.00140625;32,8.59375E-4;33,4.296875E-4;34,5.078125E-4;35,0.0010546875;36,0.001328125;37,3.515625E-4;38,4.296875E-4;39,3.125E-4;40,9.765625E-4;41,0.00125;42,3.90625E-4;43,5.078125E-4;44,3.125E-4;45,7.8125E-5;46,2.34375E-4;47,5.46875E-4;48,1.953125E-4;49,1.5625E-4;50,0.0;51,0.0;52,1.5625E-4;53,2.734375E-4;54,2.34375E-4;55,0.0;59,0.0;60,1.171875E-4;61,2.34375E-4;62,0.0;",
		"silktouch": false,
		"dim": "Dim 0: overworld"
	},
	{
		"block": "minecraft:waterlily:0",
		"distrib": "0,0.0;62,0.0;63,0.006953125;64,0.0;",
		"silktouch": false,
		"dropsList": [
			{
				"itemStack": "minecraft:waterlily:0",
				"fortunes": {
					"0": 1.0,
					"1": 1.0,
					"2": 1.0,
					"3": 1.0
				}
			}
		],
		"dim": "Dim 0: overworld"
	},
	{
		"block": "quark:stone_speleothem:0",
		"distrib": "0,0.0;10,0.0;11,4.6875E-4;12,0.0015234374;13,0.001875;14,0.0025390624;15,0.0023046874;16,0.0025;17,0.0032421874;18,0.002734375;19,0.00203125;20,0.0012890626;21,0.0011328125;22,9.375E-4;23,8.59375E-4;24,5.46875E-4;25,5.859375E-4;26,6.640625E-4;27,7.421875E-4;28,7.421875E-4;29,6.25E-4;30,6.640625E-4;31,7.03125E-4;32,6.640625E-4;33,7.8125E-4;34,7.03125E-4;35,8.203125E-4;36,8.203125E-4;37,5.859375E-4;38,5.078125E-4;39,7.421875E-4;40,0.00109375;41,0.001171875;42,0.00125;43,0.0011328125;44,6.640625E-4;45,5.46875E-4;46,6.25E-4;47,5.859375E-4;48,2.734375E-4;49,1.5625E-4;50,1.171875E-4;51,1.171875E-4;52,1.953125E-4;53,3.90625E-4;54,4.296875E-4;55,4.296875E-4;56,2.734375E-4;57,1.953125E-4;58,1.5625E-4;59,1.171875E-4;60,3.90625E-5;61,0.0;",
		"silktouch": true,
		"dim": "Dim 0: overworld"
	},
	{
		"block": "actuallyadditions:block_treasure_chest:0",
		"distrib": "0,0.0;31,0.0;32,3.90625E-5;33,0.0;",
		"silktouch": false,
		"dim": "Dim 0: overworld"
	},
	{
		"block": "libvulpes:ore0:5",
		"distrib": "0,0.0;1,5.078125E-4;2,3.90625E-4;3,0.001015625;4,0.0010546875;5,0.0012890626;6,0.00109375;7,0.0016796875;8,0.0013671875;9,0.001015625;10,0.001484375;11,0.001328125;12,0.001953125;13,0.001875;14,0.002421875;15,0.0012890626;16,8.984375E-4;17,0.0012890626;18,0.0010546875;19,0.0018359375;20,0.0012109375;21,0.00109375;22,0.001015625;23,8.59375E-4;24,0.0012890626;25,0.0016015625;26,0.001328125;27,9.375E-4;28,9.765625E-4;29,0.001328125;30,3.90625E-4;31,0.001015625;32,0.0010546875;33,9.375E-4;34,7.421875E-4;35,0.00109375;36,0.0012890626;37,0.00140625;38,0.0012109375;39,0.00140625;40,0.0015234374;41,4.296875E-4;42,0.0012109375;43,0.0011328125;44,0.0019140625;45,0.00125;46,5.078125E-4;47,7.03125E-4;48,5.859375E-4;49,4.6875E-4;50,6.25E-4;51,8.203125E-4;52,1.953125E-4;53,3.125E-4;54,1.171875E-4;55,6.25E-4;56,3.90625E-4;57,3.515625E-4;58,1.5625E-4;59,0.0;60,7.8125E-5;61,0.0;62,7.8125E-5;63,0.0;",
		"silktouch": false,
		"dim": "Dim 0: overworld"
	},
	{
		"block": "quark:roots_black_flower:0",
		"distrib": "0,0.0;14,0.0;15,3.90625E-5;16,3.90625E-5;17,0.0;18,3.90625E-5;19,0.0;21,0.0;22,3.90625E-5;24,3.90625E-5;25,0.0;27,0.0;28,7.8125E-5;29,1.171875E-4;30,0.0;32,0.0;33,7.8125E-5;34,3.90625E-5;35,0.0;36,3.90625E-5;37,0.0;38,0.0;39,7.8125E-5;40,7.8125E-5;41,3.90625E-5;42,0.0;43,0.0;44,3.90625E-5;45,3.90625E-5;46,0.0;",
		"silktouch": false,
		"dropsList": [
			{
				"itemStack": "quark:root_flower:1",
				"fortunes": {
					"0": 1.0,
					"1": 1.0,
					"2": 1.0,
					"3": 1.0
				}
			}
		],
		"dim": "Dim 0: overworld"
	},
	{
		"block": "libvulpes:ore0:4",
		"distrib": "0,0.0;1,1.5625E-4;2,5.078125E-4;3,8.203125E-4;4,0.0015234374;5,0.0012109375;6,0.0017578125;7,0.0012890626;8,9.375E-4;9,0.0012890626;10,0.0011328125;11,0.001484375;12,9.375E-4;13,8.59375E-4;14,9.375E-4;15,0.0013671875;16,7.8125E-4;17,5.859375E-4;18,0.0010546875;19,5.859375E-4;20,0.00109375;21,9.765625E-4;22,8.984375E-4;23,5.859375E-4;24,8.203125E-4;25,0.0010546875;26,7.421875E-4;27,7.8125E-4;28,0.0012109375;29,0.00125;30,8.59375E-4;31,9.765625E-4;32,0.0010546875;33,7.8125E-4;34,3.90625E-4;35,0.0010546875;36,3.125E-4;37,6.640625E-4;38,3.90625E-4;39,7.8125E-4;40,0.00140625;41,5.859375E-4;42,0.0010546875;43,9.375E-4;44,0.0012109375;45,0.00125;46,5.859375E-4;47,8.203125E-4;48,5.078125E-4;49,4.6875E-4;50,6.25E-4;51,5.46875E-4;52,8.203125E-4;53,3.90625E-4;54,9.765625E-4;55,8.59375E-4;56,1.5625E-4;57,7.8125E-5;58,2.34375E-4;59,3.125E-4;60,2.34375E-4;61,2.734375E-4;62,0.0;",
		"silktouch": false,
		"dim": "Dim 0: overworld"
	},
	{
		"block": "minecraft:redstone_ore:0",
		"distrib": "0,0.0;1,0.0028515626;2,0.0055859373;3,0.0069140624;4,0.00734375;5,0.010859375;6,0.013007812;7,0.010585938;8,0.01140625;9,0.00921875;10,0.012109375;11,0.011171875;12,0.010585938;13,0.010429688;14,0.00578125;15,0.002421875;16,8.203125E-4;17,0.0;",
		"silktouch": true,
		"dropsList": [
			{
				"itemStack": "minecraft:redstone:0",
				"fortunes": {
					"0": 4.5119,
					"1": 4.9941,
					"2": 5.5018,
					"3": 5.9837
				}
			}
		],
		"dim": "Dim 0: overworld"
	},
	{
		"block": "minecraft:dirt:0",
		"distrib": "0,0.0;1,0.0034375;2,0.005234375;3,0.0051953127;4,0.0073828124;5,0.01171875;6,0.01609375;7,0.017929688;8,0.018320313;9,0.015976563;10,0.014726562;11,0.014570313;12,0.011289063;13,0.012578125;14,0.011289063;15,0.014765625;16,0.01796875;17,0.016953126;18,0.013085937;19,0.01203125;20,0.013867187;21,0.016601562;22,0.016601562;23,0.018945312;24,0.019609375;25,0.02078125;26,0.020898437;27,0.019257812;28,0.02;29,0.021328125;30,0.018984376;31,0.016132813;32,0.013867187;33,0.012226563;34,0.01515625;35,0.016914062;36,0.019375;37,0.022460938;38,0.02296875;39,0.021132812;40,0.017617188;41,0.019414062;42,0.018203124;43,0.015703125;44,0.01765625;45,0.015;46,0.011171875;47,0.009882812;48,0.0073828124;49,0.00796875;50,0.008398438;51,0.0069140624;52,0.0071875;53,0.010429688;54,0.011523438;55,0.015117187;56,0.023476563;57,0.057109375;58,0.118710935;59,0.16382812;60,0.19210938;61,0.1853125;62,0.11890625;63,0.079882815;64,0.015585938;65,0.013046875;66,0.0;",
		"silktouch": false,
		"dim": "Dim 0: overworld"
	},
	{
		"block": "quark:diorite_speleothem:0",
		"distrib": "0,0.0;10,0.0;11,3.90625E-5;12,3.90625E-5;13,0.0;23,0.0;24,3.90625E-5;26,3.90625E-5;27,0.0;",
		"silktouch": true,
		"dim": "Dim 0: overworld"
	},
	{
		"block": "minecraft:dirt:1",
		"distrib": "0,0.0;14,0.0;15,1.5625E-4;16,0.0;",
		"silktouch": false,
		"dim": "Dim 0: overworld"
	},
	{
		"block": "nuclearcraft:ore:5",
		"distrib": "0,0.0;1,6.25E-4;2,9.375E-4;3,0.0015234374;4,0.002265625;5,0.0033203126;6,0.0033984375;7,0.00375;8,0.003671875;9,0.0030078124;10,0.0034375;11,0.004140625;12,0.0023046874;13,0.0030078124;14,0.002734375;15,0.0030078124;16,0.0028515626;17,0.0037109375;18,0.0028125;19,0.002578125;20,0.0023046874;21,0.00140625;22,0.001640625;23,0.0024609375;24,0.002890625;25,0.0031640625;26,0.0028515626;27,5.46875E-4;28,1.5625E-4;29,0.0;",
		"silktouch": false,
		"dim": "Dim 0: overworld"
	},
	{
		"block": "nuclearcraft:ore:4",
		"distrib": "0,0.0;1,3.515625E-4;2,4.296875E-4;3,4.6875E-4;4,5.859375E-4;5,0.001328125;6,9.375E-4;7,8.59375E-4;8,0.00140625;9,0.0018359375;10,0.001484375;11,0.001484375;12,0.0017578125;13,0.00203125;14,0.0012109375;15,7.03125E-4;16,7.03125E-4;17,4.296875E-4;18,0.001171875;19,0.00125;20,8.59375E-4;21,0.0010546875;22,0.0016796875;23,9.375E-4;24,0.0012109375;25,0.001015625;26,0.001953125;27,0.001796875;28,0.001484375;29,0.00125;30,8.59375E-4;31,3.90625E-4;32,2.34375E-4;33,0.0;",
		"silktouch": false,
		"dim": "Dim 0: overworld"
	},
	{
		"block": "mysticalagriculture:inferium_ore:0",
		"distrib": "0,0.0;12,0.0;13,7.8125E-5;14,0.0024609375;15,0.004921875;16,0.005390625;17,0.00453125;18,0.005234375;19,0.005859375;20,0.0042578126;21,0.0040234374;22,0.0044921874;23,0.0040234374;24,0.0053515625;25,0.0042578126;26,0.004375;27,0.0031640625;28,0.0051953127;29,0.004140625;30,0.004765625;31,0.004296875;32,0.005;33,0.0053125;34,0.0042578126;35,0.005078125;36,0.00578125;37,0.0053515625;38,0.0058984375;39,0.0043359376;40,0.0050390624;41,0.0044921874;42,0.0035546876;43,0.00453125;44,0.0034375;45,0.0034375;46,0.0038671875;47,0.00359375;48,0.0016015625;49,2.34375E-4;50,0.0;",
		"silktouch": true,
		"dropsList": [
			{
				"itemStack": "mysticalagriculture:crafting:0",
				"fortunes": {
					"0": 2.5132,
					"1": 2.4968,
					"2": 3.1289,
					"3": 4.0432
				}
			}
		],
		"dim": "Dim 0: overworld"
	},
	{
		"block": "nuclearcraft:ore:7",
		"distrib": "0,0.0;1,8.59375E-4;2,0.00125;3,0.0013671875;4,0.0014453125;5,0.0023046874;6,0.002734375;7,0.0032421874;8,0.0028515626;9,0.0026171876;10,0.00203125;11,0.001875;12,0.0023046874;13,0.0028515626;14,0.003203125;15,0.00171875;16,0.0016015625;17,0.001953125;18,0.0016796875;19,0.0019140625;20,0.002578125;21,0.0018359375;22,8.984375E-4;23,7.03125E-4;24,2.34375E-4;25,0.0;",
		"silktouch": false,
		"dim": "Dim 0: overworld"
	},
	{
		"block": "nuclearcraft:ore:6",
		"distrib": "0,0.0;1,6.25E-4;2,0.00140625;3,0.0011328125;4,0.0021875;5,0.0029296875;6,0.0020703124;7,0.00234375;8,0.002421875;9,0.003203125;10,0.0025;11,0.0037109375;12,0.003671875;13,0.0029296875;14,0.00203125;15,0.001953125;16,0.002578125;17,0.0030078124;18,0.0027734374;19,0.002890625;20,0.003125;21,0.0026171876;22,0.003515625;23,0.003671875;24,0.003125;25,0.0023828126;26,0.0023046874;27,0.0016015625;28,1.5625E-4;29,0.0;",
		"silktouch": false,
		"dim": "Dim 0: overworld"
	},
	{
		"block": "quark:elder_prismarine:0",
		"distrib": "0,0.0;7,0.0;8,2.34375E-4;9,1.953125E-4;10,1.5625E-4;11,1.953125E-4;12,1.5625E-4;13,2.34375E-4;14,3.125E-4;15,4.296875E-4;16,4.296875E-4;17,5.078125E-4;18,0.0;24,0.0;25,5.859375E-4;26,0.0014453125;27,0.0027734374;28,0.001875;29,0.0013671875;30,0.0015234374;31,0.0021484375;32,5.859375E-4;33,7.8125E-4;34,7.8125E-5;35,0.0;",
		"silktouch": false,
		"dim": "Dim 0: overworld"
	},
	{
		"block": "nuclearcraft:ore:1",
		"distrib": "0,0.0;1,1.5625E-4;2,4.6875E-4;3,9.375E-4;4,0.001640625;5,0.0019921875;6,0.0013671875;7,0.001015625;8,8.203125E-4;9,9.375E-4;10,0.002109375;11,0.001875;12,0.001328125;13,0.00109375;14,0.0013671875;15,0.001953125;16,0.0015625;17,0.0012890626;18,0.00203125;19,0.001953125;20,9.765625E-4;21,0.0014453125;22,0.0022265625;23,0.0023828126;24,0.0023046874;25,0.001328125;26,0.0018359375;27,0.0019921875;28,0.0020703124;29,0.0017578125;30,0.001796875;31,0.002265625;32,0.001640625;33,0.0013671875;34,0.0017578125;35,0.0010546875;36,6.25E-4;37,8.59375E-4;38,0.00203125;39,0.0010546875;40,1.5625E-4;41,0.0;",
		"silktouch": false,
		"dim": "Dim 0: overworld"
	},
	{
		"block": "nuclearcraft:ore:0",
		"distrib": "0,0.0;1,5.46875E-4;2,5.46875E-4;3,0.0013671875;4,0.0016015625;5,0.00234375;6,0.0017578125;7,0.00203125;8,0.0015625;9,0.0019921875;10,0.00171875;11,0.002265625;12,0.0023828126;13,0.0016015625;14,0.0014453125;15,0.0018359375;16,0.001796875;17,0.00125;18,0.0014453125;19,0.00203125;20,0.0012890626;21,0.0015234374;22,0.00203125;23,6.25E-4;24,0.001171875;25,0.00171875;26,0.0017578125;27,0.0016015625;28,0.00125;29,0.001953125;30,0.00140625;31,0.0015625;32,0.0015625;33,0.0014453125;34,0.001171875;35,0.001328125;36,0.00171875;37,0.0022265625;38,0.0024609375;39,0.0019921875;40,0.0021875;41,0.001875;42,0.0022265625;43,0.00140625;44,0.00171875;45,0.001953125;46,0.001484375;47,5.46875E-4;48,1.5625E-4;49,0.0;",
		"silktouch": false,
		"dim": "Dim 0: overworld"
	},
	{
		"block": "ghostsexplosives:ore_uranium:0",
		"distrib": "0,0.0;3,0.0;4,1.953125E-4;5,3.90625E-5;6,1.5625E-4;7,0.0;8,0.0;9,1.5625E-4;10,1.5625E-4;11,0.0;12,0.0;13,3.125E-4;14,0.0;15,1.5625E-4;16,0.0;17,4.6875E-4;18,0.0;",
		"silktouch": true,
		"dropsList": [
			{
				"itemStack": "ghostsexplosives:dust_uranium:0",
				"fortunes": {
					"0": 1.9995,
					"1": 2.499,
					"2": 2.9922,
					"3": 3.5094
				}
			}
		],
		"dim": "Dim 0: overworld"
	},
	{
		"block": "bewitchment:garnet_ore:0",
		"distrib": "0,0.0;8,0.0;9,1.5625E-4;10,2.34375E-4;11,4.6875E-4;12,0.001015625;13,6.640625E-4;14,7.8125E-5;15,2.34375E-4;16,5.46875E-4;17,2.34375E-4;18,6.25E-4;19,4.296875E-4;20,5.46875E-4;21,5.859375E-4;22,4.6875E-4;23,5.46875E-4;24,6.640625E-4;25,7.8125E-4;26,7.421875E-4;27,7.8125E-4;28,4.6875E-4;29,2.34375E-4;30,3.90625E-4;31,2.734375E-4;32,5.078125E-4;33,5.46875E-4;34,4.296875E-4;35,7.8125E-4;36,7.8125E-4;37,6.25E-4;38,4.6875E-4;39,3.125E-4;40,1.953125E-4;41,0.0;",
		"silktouch": false,
		"dim": "Dim 0: overworld"
	},
	{
		"block": "nuclearcraft:ore:3",
		"distrib": "0,0.0;1,3.90625E-4;2,5.46875E-4;3,8.59375E-4;4,0.00140625;5,0.0019921875;6,0.0019921875;7,0.001484375;8,0.00125;9,7.421875E-4;10,9.375E-4;11,0.00140625;12,0.0015234374;13,8.59375E-4;14,0.00140625;15,0.0012109375;16,0.001015625;17,0.0013671875;18,0.0012109375;19,7.421875E-4;20,0.001171875;21,0.0010546875;22,9.765625E-4;23,0.0018359375;24,0.001953125;25,8.59375E-4;26,0.00109375;27,0.0014453125;28,7.421875E-4;29,0.0010546875;30,0.0011328125;31,5.46875E-4;32,2.34375E-4;33,0.0;",
		"silktouch": false,
		"dim": "Dim 0: overworld"
	},
	{
		"block": "nuclearcraft:ore:2",
		"distrib": "0,0.0;1,7.03125E-4;2,9.375E-4;3,0.0015234374;4,0.0028515626;5,0.002890625;6,0.0028515626;7,0.003515625;8,0.0031640625;9,0.0026953125;10,0.0021875;11,0.002421875;12,0.002734375;13,0.0025390624;14,0.0019921875;15,0.001953125;16,0.0019921875;17,0.0015625;18,0.002109375;19,0.0041015623;20,0.0025390624;21,0.0023828126;22,0.0028515626;23,0.002578125;24,0.0019921875;25,0.0033203126;26,0.004296875;27,0.003671875;28,0.0028515626;29,0.0031640625;30,0.0021484375;31,0.0019921875;32,0.002109375;33,0.0021484375;34,0.00203125;35,0.001484375;36,4.6875E-4;37,0.0;",
		"silktouch": false,
		"dim": "Dim 0: overworld"
	},
	{
		"block": "quark:limestone:0",
		"distrib": "0,0.0;9,0.0;10,0.0034765624;11,0.00625;12,0.012460938;13,0.017421875;14,0.027265625;15,0.035859376;16,0.04359375;17,0.049179688;18,0.05625;19,0.061914064;20,0.06535156;21,0.06757812;22,0.07222656;23,0.07589844;24,0.0809375;25,0.08203125;26,0.08402344;27,0.083046876;28,0.08265625;29,0.0803125;30,0.07816406;31,0.07386719;32,0.0703125;33,0.06605469;34,0.06113281;35,0.058359373;36,0.0540625;37,0.0478125;38,0.044257812;39,0.039492186;40,0.037773438;41,0.0353125;42,0.0359375;43,0.034296874;44,0.026757812;45,0.026992187;46,0.0290625;47,0.016757812;48,0.00765625;49,0.00734375;50,0.006875;51,0.0067578126;52,0.0063671875;53,0.0057421876;54,0.00484375;55,0.004375;56,0.003515625;57,5.46875E-4;58,1.5625E-4;59,0.0;",
		"silktouch": false,
		"dim": "Dim 0: overworld"
	},
	{
		"block": "techreborn:techreborn_techreborn.oil:0",
		"distrib": "0,0.0;31,0.0;32,0.0025;33,0.0;35,0.0;36,9.375E-4;37,0.0028125;38,0.0;",
		"silktouch": false,
		"dim": "Dim 0: overworld"
	},
	{
		"block": "tconstruct:slime_dirt:1",
		"distrib": "0,0.0;158,0.0;159,3.90625E-5;160,0.0;",
		"silktouch": false,
		"dim": "Dim 0: overworld"
	},
	{
		"block": "quark:slate_speleothem:0",
		"distrib": "0,0.0;13,0.0;14,3.90625E-5;15,3.90625E-5;16,7.8125E-5;17,1.171875E-4;18,3.90625E-5;19,3.90625E-5;20,0.0;",
		"silktouch": true,
		"dim": "Dim 0: overworld"
	},
	{
		"block": "taiga:dilithium_ore:0",
		"distrib": "0,0.0;1,0.0;2,1.171875E-4;3,1.953125E-4;4,1.5625E-4;5,1.953125E-4;6,3.90625E-4;7,3.90625E-4;8,8.203125E-4;9,4.6875E-4;10,3.90625E-4;11,1.953125E-4;12,1.5625E-4;13,5.46875E-4;14,3.125E-4;15,2.34375E-4;16,0.0;17,2.34375E-4;18,1.953125E-4;19,7.8125E-5;20,3.125E-4;21,3.90625E-4;22,1.5625E-4;23,2.34375E-4;24,4.6875E-4;25,7.8125E-5;26,3.90625E-4;27,6.640625E-4;28,2.734375E-4;29,7.8125E-5;30,1.5625E-4;31,1.5625E-4;32,1.171875E-4;33,2.734375E-4;34,7.8125E-5;35,0.0;36,3.90625E-4;37,1.953125E-4;38,7.8125E-5;40,7.8125E-5;41,1.5625E-4;42,2.34375E-4;43,3.515625E-4;44,2.734375E-4;45,3.515625E-4;46,2.734375E-4;47,7.8125E-5;48,0.0;",
		"silktouch": true,
		"dropsList": [
			{
				"itemStack": "taiga:dilithium_crystal:0",
				"fortunes": {
					"0": 1.9961,
					"1": 2.5031,
					"2": 3.004,
					"3": 3.5105
				}
			}
		],
		"dim": "Dim 0: overworld"
	},
	{
		"block": "bewitchment:opal_ore:0",
		"distrib": "0,0.0;13,0.0;14,3.125E-4;15,5.078125E-4;16,5.078125E-4;17,3.90625E-4;18,3.125E-4;19,3.515625E-4;20,2.734375E-4;21,5.859375E-4;22,7.8125E-5;23,7.03125E-4;24,5.46875E-4;25,5.46875E-4;26,5.859375E-4;27,3.515625E-4;28,7.03125E-4;29,6.640625E-4;30,3.515625E-4;31,4.296875E-4;32,3.90625E-4;33,7.8125E-5;34,6.640625E-4;35,5.859375E-4;36,3.90625E-4;37,5.46875E-4;38,7.421875E-4;39,3.90625E-4;40,1.171875E-4;41,0.0;",
		"silktouch": false,
		"dim": "Dim 0: overworld"
	},
	{
		"block": "ghostsexplosives:ore_sulfur:0",
		"distrib": "0,0.0;17,0.0;18,3.125E-4;19,0.0016015625;20,0.003359375;21,0.0046484377;22,0.004140625;23,0.004375;24,0.0033984375;25,0.0041015623;26,0.0046875;27,0.0050390624;28,0.0040234374;29,0.0033203126;30,0.002109375;31,0.003984375;32,0.0043359376;33,0.0037890626;34,0.0046875;35,0.004453125;36,0.0047265626;37,0.003515625;38,0.0034765624;39,0.0047265626;40,0.0040625;41,0.003125;42,0.0039453125;43,0.004375;44,0.0030078124;45,0.0030078124;46,0.0026171876;47,0.003125;48,0.0013671875;49,0.001953125;50,0.00140625;51,8.203125E-4;52,1.5625E-4;53,0.0;",
		"silktouch": true,
		"dropsList": [
			{
				"itemStack": "ghostsexplosives:sulfur:0",
				"fortunes": {
					"0": 1.4972,
					"1": 1.9961,
					"2": 2.4993,
					"3": 2.9847
				}
			}
		],
		"dim": "Dim 0: overworld"
	},
	{
		"block": "iceandfire:silver_ore:0",
		"distrib": "0,0.0;1,1.171875E-4;2,3.90625E-4;3,7.8125E-4;4,5.859375E-4;5,5.859375E-4;6,3.125E-4;7,9.765625E-4;8,7.421875E-4;9,1.171875E-4;10,3.125E-4;11,0.00109375;12,7.421875E-4;13,5.078125E-4;14,7.8125E-4;15,1.171875E-4;16,3.125E-4;17,3.515625E-4;18,1.953125E-4;19,6.25E-4;20,4.296875E-4;21,3.125E-4;22,0.0;23,3.515625E-4;24,3.90625E-4;25,2.34375E-4;26,3.90625E-4;27,3.90625E-4;28,5.46875E-4;29,5.859375E-4;30,2.734375E-4;31,0.0;",
		"silktouch": false,
		"dim": "Dim 0: overworld"
	}
]